<?xml  version="1.0" encoding="UTF-8"?>
<!DOCTYPE svg PUBLIC "-//W3C//DTD SVG 1.0//EN" "http://www.w3.org/TR/2001/REC-SVG-20010904/DTD/svg10.dtd" >
<svg xmlns="http://www.w3.org/2000/svg" >
<metadata>
<version>1.0</version>
<id><![CDATA[RN House Sans W01 Bold]]></id>
<vendor>Monotype Imaging Inc.</vendor>
<credits>
<name>Fonts.com WebFonts</name>
<URL>http://webfonts.fonts.com</URL>
<role>Home of the Web fonts</role>
</credits>
<license>
<URL>http://webfonts.fonts.com/Legal</URL>
</license>
<copyright><![CDATA[Copyright © 2015 Monotype Imaging Inc. All rights reserved.]]></copyright>
<trademark></trademark>
<licensee>
<name></name>
</licensee>
</metadata>
<defs >
<font horiz-adv-x="548" id="RNHouseSansW01Bold">
<font-face font-family="RN House Sans W01 Bold" panose-1="2 11 8 4 2 2 3 2 2 4" ascent="970" descent="-256" units-per-em="1000" alphabetic="0">
</font-face>
<missing-glyph horiz-adv-x="500" d="M500 700V0H0V700H500ZM80 650L250 395L420 650H80ZM220 350L50 605V95L220 350ZM450 605L280 350L450 95V605ZM250 305L80 50H420L250 305Z"  />

<glyph unicode="&#xA;" />
<glyph unicode="&#xD;" />
<glyph unicode=" " horiz-adv-x="310" />
<glyph unicode="!" horiz-adv-x="339" d="M244 547T240 468T227 281L224 246H113L110 281Q101 388 97 467T93 710H244Q244 547 240 468ZM207 160T230 137T253 75Q253 37 231 15T168 -8Q130 -8 107 14T84 76Q84 115 107 137T169 160Q207 160 230 137Z"  />
<glyph unicode="&quot;" horiz-adv-x="420" d="M71 724H176V425H71V724ZM246 724H351V425H246V724Z"  />
<glyph unicode="#" horiz-adv-x="665" d="M598 306L581 198H485L454 0H339L370 198H242L211 0H96L127 198H33L50 306H144L162 417H67L84 525H179L208 710H323L294 525H422L451 710H566L537 525H632L615 417H520L502 306H598ZM259 306H387L405 417H277L259 306Z"  />
<glyph unicode="$" horiz-adv-x="574" d="M399 365T434 346T496 289T523 187Q523 104 476 54T347 -11V-94H249V-13Q171 -4 120 38T49 146L166 201Q184 150 214 125T293 99Q336 99 363 119T391 179Q391 207 378 224T342 252T280 277Q270 281 250 288T215 303Q144 336 111 383T78 497Q78 578 123 626T249 687V770H347V687Q481 668 524 541L412 497Q394 540 366 558T296 577Q251 577 230 558T208 503Q208 475 222 456T261 424T327 394Q399 365 434 346Z"  />
<glyph unicode="%" horiz-adv-x="742" d="M259 723T299 680T340 564Q340 492 300 449T187 405Q116 405 76 448T35 564Q35 636 75 679T187 723Q259 723 299 680ZM633 713L709 652L108 0L33 61L633 713ZM160 631T145 613T129 564Q129 533 144 516T187 498Q215 498 230 515T246 564Q246 595 231 613T187 631Q160 631 145 613ZM627 305T668 261T709 146Q709 75 668 31T557 -13Q485 -13 445 30T404 146Q404 218 444 261T557 305Q627 305 668 261ZM530 213T515 195T499 146Q499 115 514 98T557 80Q584 80 600 97T616 146Q616 177 600 195T557 213Q530 213 515 195Z"  />
<glyph unicode="&amp;" horiz-adv-x="659" d="M354 -18T256 -18Q196 -18 145 5T62 73T30 184Q30 313 162 394Q119 475 119 545Q119 629 170 678T305 728Q360 728 404 706T473 642T498 548Q498 474 454 424T344 336Q384 284 437 226Q464 272 495 338L639 306Q579 192 528 129Q568 87 653 0H464L432 38Q354 -18 256 -18ZM280 605T265 587T249 535Q249 493 272 446Q322 469 344 491T367 547Q367 573 353 589T310 605Q280 605 265 587ZM319 113T353 134Q274 228 234 283Q179 245 179 193Q179 156 206 135T274 113Q319 113 353 134Z"  />
<glyph unicode="&apos;" horiz-adv-x="244" d="M69 724H175V425H69V724Z"  />
<glyph unicode="(" horiz-adv-x="331" d="M246 624T217 498T188 239Q188 106 217 -18T303 -240H187Q126 -152 94 -26T62 240Q62 380 94 508T187 726H303Q246 624 217 498Z"  />
<glyph unicode=")" horiz-adv-x="331" d="M204 638T236 512T268 246Q268 106 236 -22T143 -240H27Q84 -138 113 -12T142 247Q142 380 113 504T27 726H143Q204 638 236 512Z"  />
<glyph unicode="*" horiz-adv-x="441" d="M177 579L167 702H271L265 579L377 626L407 529L291 497L370 409L287 348L221 447L156 347L73 406L150 497L34 529L65 626L177 579Z"  />
<glyph unicode="+" horiz-adv-x="596" d="M354 -8H243V199H34V310H243V518H354V310H561V199H354V-8Z"  />
<glyph unicode="&#x2c;" horiz-adv-x="292" d="M230 -20T193 -76T100 -161L67 -109Q125 -71 142 -1Q100 0 81 20T61 83Q61 125 83 147T149 169Q192 169 211 141T230 54Q230 -20 193 -76Z"  />
<glyph unicode="-" horiz-adv-x="394" d="M38 323H355V212H38V323Z"  />
<glyph unicode="." horiz-adv-x="292" d="M184 159T207 136T230 74Q230 35 208 13T145 -10Q107 -10 84 12T61 74Q61 113 84 136T146 159Q184 159 207 136Z"  />
<glyph unicode="/" horiz-adv-x="361" d="M274 710H383L103 0H-6L274 710Z"  />
<glyph unicode="0" horiz-adv-x="552" d="M518 -14T276 -14Q152 -14 93 73T34 355Q34 550 93 637T276 724Q518 724 518 355Q518 -14 276 -14ZM184 220T207 165T276 109Q308 109 327 129T358 202T369 355Q369 454 358 507T328 581T276 601Q230 601 207 546T184 355Q184 220 207 165Z"  />
<glyph unicode="1" horiz-adv-x="552" d="M487 0H86V120H218V530Q198 505 167 483T107 449L63 565Q112 584 155 622T222 710H357V120H487V0Z"  />
<glyph unicode="2" horiz-adv-x="552" d="M30 0V94Q90 164 179 262Q245 334 275 371T322 441T339 508Q339 551 314 576T246 601Q203 601 171 584T104 522L19 602Q60 665 120 694T259 724Q366 724 427 668T489 515Q489 460 467 412T411 320T311 207Q288 183 231 120H503V0H30Z"  />
<glyph unicode="3" horiz-adv-x="552" d="M438 351T465 305T493 199Q493 135 463 87T378 12T250 -14Q165 -14 100 24T3 134L111 212Q136 157 168 133T249 109Q294 109 319 134T344 203Q344 253 315 277T226 302H165V422H213Q265 422 295 447T326 516Q326 554 304 577T243 601Q205 601 176 583T115 520L23 603Q53 660 111 692T244 724Q312 724 364 698T445 626T474 520Q474 475 451 437T387 375Q438 351 465 305Z"  />
<glyph unicode="4" horiz-adv-x="552" d="M440 0H297V156H7V264L295 710H440V264H518V156H440V0ZM136 264H297V522L136 264Z"  />
<glyph unicode="5" horiz-adv-x="552" d="M338 465T389 436T469 353T497 228Q497 157 466 102T377 17T244 -14Q174 -14 116 16T17 102L118 187Q151 144 179 126T243 108Q290 108 318 140T347 225Q347 282 322 312T250 342Q193 342 156 304L42 321L133 712L471 711V591L239 592L205 455Q235 465 271 465Q338 465 389 436Z"  />
<glyph unicode="6" horiz-adv-x="552" d="M353 462T404 433T484 351T512 234Q512 158 481 103T394 18T266 -12Q195 -12 141 18T58 103T28 232Q28 349 82 459T241 710H400Q281 555 219 450Q249 462 285 462Q353 462 404 433ZM314 111T339 141T365 231Q365 289 340 319T265 350Q217 350 192 320T166 231Q166 172 191 142T265 111Q314 111 339 141Z"  />
<glyph unicode="7" horiz-adv-x="552" d="M273 0H126L362 575H36V710H512V597L273 0Z"  />
<glyph unicode="8" horiz-adv-x="552" d="M470 342T492 300T515 204Q515 140 485 91T401 14T276 -14Q206 -14 152 13T67 90T37 204Q37 257 59 299T125 367Q90 393 71 431T51 514Q51 575 79 623T159 697T276 724Q342 724 393 698T472 623T501 514Q501 469 482 431T428 367Q470 342 492 300ZM191 471T214 445T276 418Q313 418 337 445T361 511Q361 552 338 578T276 605Q239 605 215 578T191 512Q191 471 214 445ZM318 105T344 133T370 205Q370 250 345 277T276 305Q233 305 208 278T182 205Q182 161 208 133T276 105Q318 105 344 133Z"  />
<glyph unicode="9" horiz-adv-x="552" d="M346 724T400 694T485 608T515 479Q515 380 468 272T304 0H150Q251 130 326 264Q295 250 257 250Q191 250 140 279T59 359T30 478Q30 552 60 608T145 694T274 724Q346 724 400 694ZM178 423T203 393T277 362Q325 362 350 392T376 481Q376 539 351 569T277 600Q229 600 204 570T178 481Q178 423 203 393Z"  />
<glyph unicode=":" horiz-adv-x="292" d="M185 499T208 476T231 414Q231 376 209 353T146 330Q108 330 86 353T63 415Q63 454 86 476T147 499Q185 499 208 476ZM185 159T208 136T231 74Q231 35 209 13T146 -10Q108 -10 86 12T63 74Q63 113 86 136T147 159Q185 159 208 136Z"  />
<glyph unicode=";" horiz-adv-x="292" d="M185 499T208 476T231 414Q231 376 209 353T146 330Q108 330 86 353T63 415Q63 454 86 476T147 499Q185 499 208 476ZM231 -20T194 -76T101 -161L68 -109Q126 -71 143 -1Q101 0 82 20T63 83Q63 125 85 147T150 169Q193 169 212 141T231 54Q231 -20 194 -76Z"  />
<glyph unicode="&lt;" horiz-adv-x="579" d="M546 121V4L36 190V295L546 481V364L190 243L546 121Z"  />
<glyph unicode="=" horiz-adv-x="596" d="M34 418H561V307H34V418ZM34 203H561V92H34V203Z"  />
<glyph unicode="&gt;" horiz-adv-x="579" d="M34 4V121L390 243L34 364V481L544 295V190L34 4Z"  />
<glyph unicode="?" horiz-adv-x="547" d="M364 724T426 672T488 527Q488 476 471 440T429 381T371 335Q338 314 322 297T306 259V229H165V262Q165 300 179 327T212 371T265 411Q305 441 326 466T347 528Q346 567 320 588T247 609Q207 609 177 590T110 516L10 601Q56 664 116 694T256 724Q364 724 426 672ZM276 159T299 136T323 74Q323 35 300 13T238 -10Q199 -10 177 12T154 74Q154 113 177 136T238 159Q276 159 299 136Z"  />
<glyph unicode="@" horiz-adv-x="832" d="M535 686T622 647T759 535T809 362Q809 299 789 231T722 113T599 63Q552 63 521 84T482 153Q439 105 367 105Q314 105 275 130T215 197T194 290Q194 346 218 400T291 489T411 525Q450 525 477 513T522 471L527 498H627L585 265Q584 259 583 253T580 240Q573 202 573 188Q573 171 580 164T604 156Q642 156 666 189T701 270T712 362Q711 431 677 484T580 566T432 595Q323 595 254 550T155 435T124 289Q124 172 195 103T400 33Q428 33 450 36T500 50L522 -38Q484 -50 455 -55T390 -60Q284 -60 201 -20T71 98T23 284Q23 382 64 474T196 626T425 686Q535 686 622 647ZM378 427T354 406T318 354T307 294Q307 253 328 228T387 202Q413 202 439 214T484 245L506 376Q496 399 473 413T417 427Q378 427 354 406Z"  />
<glyph unicode="A" horiz-adv-x="762" d="M165 0H2L282 710H477L757 0H588L527 165H227L165 0ZM279 301H476L378 565L279 301Z"  />
<glyph unicode="B" horiz-adv-x="661" d="M620 331T620 203Q620 114 559 57T375 0H67V710H364Q485 710 543 659T601 524Q601 427 507 376Q620 331 620 203ZM443 422T443 500Q443 576 353 576H220V419H350Q443 422 443 500ZM414 127T438 151T462 215Q462 298 367 298H220V127H369Q414 127 438 151Z"  />
<glyph unicode="C" horiz-adv-x="747" d="M492 728T567 692T700 576L590 480Q544 540 499 567T391 594Q300 594 247 532T193 355Q193 241 245 179T389 116Q458 116 503 149T593 256L713 177Q660 80 578 31T391 -18Q285 -18 206 25T82 152T38 355Q38 474 82 558T206 685T393 728Q492 728 567 692Z"  />
<glyph unicode="D" horiz-adv-x="740" d="M451 710T533 670T662 550T709 355Q709 240 663 161T534 41T344 0H71V710H343Q451 710 533 670ZM408 137T453 162T524 237T550 355Q550 424 524 473T453 547T353 573H226V137H353Q408 137 453 162Z"  />
<glyph unicode="E" horiz-adv-x="602" d="M222 430H515V298H222V137H572V0H67V710H572V573H222V430Z"  />
<glyph unicode="F" horiz-adv-x="560" d="M226 421H499V285H226V0H71V710H549V573H226V421Z"  />
<glyph unicode="G" horiz-adv-x="748" d="M715 152T625 68T390 -17Q286 -17 207 25T83 150T38 353Q38 472 82 555T206 681T390 724Q491 724 569 684T695 562L585 476Q548 536 503 563T397 590Q301 590 249 529T197 354Q197 240 249 179T398 117Q468 117 511 151T564 254H364V391H715V340Q715 152 625 68Z"  />
<glyph unicode="H" horiz-adv-x="743" d="M521 302H222V0H67V710H222V438H521V710H676V0H521V302Z"  />
<glyph unicode="I" horiz-adv-x="295" d="M71 710H226V0H71V710Z"  />
<glyph unicode="J" horiz-adv-x="473" d="M410 103T349 43T183 -18Q128 -18 83 1T-3 58L80 166Q125 119 177 119Q217 119 236 142T255 221V710H410V223Q410 103 349 43Z"  />
<glyph unicode="K" horiz-adv-x="699" d="M494 0L285 279L222 214V0H67V710H222V413L505 710H703L397 395L701 0H494Z"  />
<glyph unicode="L" horiz-adv-x="576" d="M571 0H67V710H222V137H571V0Z"  />
<glyph unicode="M" horiz-adv-x="921" d="M524 30H397L240 456L223 0H68L97 710H287L460 220L633 710H824L852 0H697L680 456L524 30Z"  />
<glyph unicode="N" horiz-adv-x="783" d="M224 492H222V0H67V710H256L558 218H560V710H715V0H527L224 492Z"  />
<glyph unicode="O" horiz-adv-x="792" d="M502 728T582 686T708 559T754 355Q754 235 709 151T582 25T396 -18Q291 -18 210 24T84 151T38 355Q38 475 83 559T209 685T396 728Q502 728 582 686ZM305 594T251 532T197 355Q197 242 251 179T396 116Q486 116 540 179T595 355Q595 469 541 531T396 594Q305 594 251 532Z"  />
<glyph unicode="P" horiz-adv-x="650" d="M500 710T565 643T631 466Q631 352 564 283T365 213H226V0H71V710H365Q500 710 565 643ZM357 349Q414 349 443 379T472 467Q472 518 445 545T355 573H226V349H357Z"  />
<glyph unicode="Q" horiz-adv-x="775" d="M745 239T703 157T584 30L670 -112H504L445 -15Q417 -18 387 -18Q282 -18 201 24T75 151T29 355Q29 475 74 559T200 685T387 728Q493 728 573 686T699 559T745 355Q745 239 703 157ZM189 242T243 179T387 116Q477 116 531 179T586 355Q586 469 532 531T387 594Q297 594 243 532T189 355Q189 242 243 179Z"  />
<glyph unicode="R" horiz-adv-x="664" d="M222 256V0H67V710H359Q446 710 503 680T588 600T616 488Q616 417 583 362T485 279L629 0H460L334 256H222ZM412 390T438 416T465 486Q465 527 439 551T352 576H222V390H362Q412 390 438 416Z"  />
<glyph unicode="S" horiz-adv-x="614" d="M389 728T453 703T564 628L456 525Q420 562 385 578T307 594Q205 594 205 520Q205 494 220 479T260 455T337 433Q410 415 458 396T543 332T580 214Q580 142 545 90T447 10T303 -18Q114 -18 18 125L135 216Q173 165 213 141T303 116Q359 116 389 138T420 203Q420 229 406 244T367 268T288 292L259 300Q198 318 154 340T79 404T48 513Q48 614 116 671T303 728Q389 728 453 703Z"  />
<glyph unicode="T" horiz-adv-x="605" d="M380 0H226V573H5V710H600V573H380V0Z"  />
<glyph unicode="U" horiz-adv-x="731" d="M665 178T627 114T520 16T365 -18Q279 -18 211 15T105 113T66 267V710H221V267Q221 193 260 155T365 116Q432 116 471 154T510 267V710H665V267Q665 178 627 114Z"  />
<glyph unicode="V" horiz-adv-x="716" d="M259 0L5 710H172L359 159L546 710H712L458 0H259Z"  />
<glyph unicode="W" horiz-adv-x="970" d="M592 0L485 476L378 0H191L13 710H176L290 187L393 680H577L680 187L794 710H957L779 0H592Z"  />
<glyph unicode="X" horiz-adv-x="704" d="M181 0H4L254 363L20 710H205L353 491L504 710H680L446 370L696 0H509L347 241L181 0Z"  />
<glyph unicode="Y" horiz-adv-x="664" d="M254 0V279L-8 710H169L336 427L506 710H672L409 279V0H254Z"  />
<glyph unicode="Z" horiz-adv-x="593" d="M17 137L384 573H51V710H561V573L196 137H573V0H17V137Z"  />
<glyph unicode="[" horiz-adv-x="315" d="M168 -135H293V-240H57V745H293V640H168V-135Z"  />
<glyph unicode="\" horiz-adv-x="344" d="M239 0L-41 710H68L348 0H239Z"  />
<glyph unicode="]" horiz-adv-x="315" d="M21 -135H146V640H21V745H257V-240H21V-135Z"  />
<glyph unicode="^" horiz-adv-x="594" d="M176 323H54L253 676H342L540 323H418L297 544L176 323Z"  />
<glyph unicode="_" horiz-adv-x="489" d="M-6 -52H494V-153H-6V-52Z"  />
<glyph unicode="`" horiz-adv-x="291" d="M152 592L20 745H189L269 592H152Z"  />
<glyph unicode="a" horiz-adv-x="596" d="M349 498T399 442V485H535V0H399V43Q349 -13 263 -13Q193 -13 140 19T58 109T29 242Q29 317 58 375T140 466T263 498Q349 498 399 442ZM235 383T203 345T170 242Q170 177 202 139T291 101Q325 101 351 116T395 159V325Q378 353 352 368T291 383Q235 383 203 345Z"  />
<glyph unicode="b" horiz-adv-x="599" d="M250 498T333 498Q403 498 456 466T538 376T567 242Q567 167 538 109T456 18T333 -14Q247 -14 197 42V0H60V730H201V446Q250 498 333 498ZM271 383T244 368T201 325V159Q217 131 244 116T305 101Q361 101 393 139T426 242Q426 307 394 345T305 383Q271 383 244 368Z"  />
<glyph unicode="c" horiz-adv-x="525" d="M429 496T496 393L404 314Q376 349 351 363T292 378Q235 378 204 342T173 244Q173 180 204 143T291 106Q329 106 357 123T407 174L505 103Q475 49 420 19T289 -12Q209 -12 151 20T62 109T31 242Q31 317 62 374T151 464T290 496Q429 496 496 393Z"  />
<glyph unicode="d" horiz-adv-x="599" d="M402 42Q352 -14 266 -14Q196 -14 143 18T60 108T31 242Q31 317 60 375T142 466T266 498Q348 498 397 446V730H538V0H402V42ZM238 383T206 345T173 242Q173 177 205 139T293 101Q328 101 354 116T397 159V325Q381 353 355 368T293 383Q238 383 206 345Z"  />
<glyph unicode="e" horiz-adv-x="565" d="M532 226T529 203H168Q178 150 212 121T297 92Q375 92 420 151L519 89Q443 -15 296 -15Q212 -15 152 17T61 109T29 246Q29 321 59 378T147 467T283 499Q361 499 417 468T502 380T532 250Q532 226 529 203ZM238 392T210 367T171 301H390Q380 344 353 368T282 392Q238 392 210 367Z"  />
<glyph unicode="f" horiz-adv-x="341" d="M307 744T357 709L317 607Q289 625 267 625Q243 625 228 608T213 558V485H325V379H213V0H72V379H20V485H72V566Q72 625 96 665T159 724T243 744Q307 744 357 709Z"  />
<glyph unicode="g" horiz-adv-x="599" d="M352 499T402 443V485H538V9Q538 -123 465 -189T269 -255Q203 -255 150 -236T49 -177L122 -80Q185 -135 264 -135Q334 -135 365 -101T397 7V39Q350 -13 266 -13Q196 -13 143 19T60 109T31 243Q31 318 60 376T142 467T266 499Q352 499 402 443ZM238 384T206 346T173 243Q173 178 205 140T293 102Q328 102 354 117T397 160V325Q381 354 355 369T293 384Q238 384 206 346Z"  />
<glyph unicode="h" horiz-adv-x="608" d="M254 498T343 498Q445 498 501 435T557 257V0H416V242Q416 302 388 335T308 369Q273 369 245 353T201 310V0H60V730H201V439Q254 498 343 498Z"  />
<glyph unicode="i" horiz-adv-x="262" d="M165 740T187 719T210 659Q210 620 187 600T129 580Q94 580 72 600T50 660Q50 699 72 719T130 740Q165 740 187 719ZM60 485H201V0H60V485Z"  />
<glyph unicode="j" horiz-adv-x="262" d="M165 740T187 719T210 659Q210 620 187 600T129 580Q94 580 72 600T50 660Q50 699 72 719T130 740Q165 740 187 719ZM201 -156T148 -202T16 -249Q-41 -249 -92 -219L-44 -104Q-19 -120 9 -120Q31 -120 45 -106T60 -61V485H201V-53Q201 -156 148 -202Z"  />
<glyph unicode="k" horiz-adv-x="584" d="M574 485L345 300L585 0H407L244 218L201 184V0H60V730H201V347L366 485H574Z"  />
<glyph unicode="l" horiz-adv-x="262" d="M60 730H201V0H60V730Z"  />
<glyph unicode="m" horiz-adv-x="906" d="M750 498T802 440T855 276V0H714V257Q714 310 690 339T621 369Q591 369 567 355T526 317Q528 291 528 276V0H387V257Q387 310 363 339T294 369Q263 369 239 355T201 317V0H60V485H192V434Q243 498 330 498Q384 498 424 479T490 421Q521 458 563 478T656 498Q750 498 802 440Z"  />
<glyph unicode="n" horiz-adv-x="608" d="M445 498T501 435T557 257V0H416V241Q416 302 388 335T308 369Q273 369 245 353T201 310V0H60V485H197V434Q250 498 343 498Q445 498 501 435Z"  />
<glyph unicode="o" horiz-adv-x="579" d="M371 498T430 466T519 376T550 242Q550 166 520 108T430 18T289 -14Q207 -14 149 18T60 108T29 242Q29 318 59 376T148 466T289 498Q371 498 430 466ZM235 383T203 345T170 242Q170 178 202 140T289 101Q343 101 376 139T409 242Q409 306 376 344T289 383Q235 383 203 345Z"  />
<glyph unicode="p" horiz-adv-x="599" d="M403 499T456 467T538 377T567 243Q567 168 538 110T456 19T333 -13Q248 -13 201 39V-240H60V485H197V443Q247 499 333 499Q403 499 456 467ZM271 384T244 369T201 325V160Q217 132 244 117T305 102Q361 102 393 140T426 243Q426 308 394 346T305 384Q271 384 244 369Z"  />
<glyph unicode="q" horiz-adv-x="599" d="M352 499T402 443V485H538V-240H397V39Q350 -13 266 -13Q196 -13 143 19T60 109T31 243Q31 318 60 376T142 467T266 499Q352 499 402 443ZM238 384T206 346T173 243Q173 178 205 140T293 102Q328 102 354 117T397 160V325Q381 354 355 369T293 384Q238 384 206 346Z"  />
<glyph unicode="r" horiz-adv-x="428" d="M386 496T439 464L375 332Q340 354 303 354Q273 354 247 337T201 283V0H60V485H196V413Q247 496 333 496Q386 496 439 464Z"  />
<glyph unicode="s" horiz-adv-x="463" d="M346 496T423 427L347 334Q294 385 229 385Q175 385 175 350Q175 332 190 322T247 303Q304 291 338 279T400 237T427 153Q427 75 368 32T220 -12Q155 -12 106 8T16 71L105 163Q133 129 161 114T224 99Q289 99 289 142Q289 162 272 171T210 192L188 198Q123 215 80 247T37 344Q37 413 91 454T233 496Q346 496 423 427Z"  />
<glyph unicode="t" horiz-adv-x="372" d="M338 379H208V173Q208 107 260 107Q287 107 315 127L366 38Q308 -9 230 -9Q155 -9 112 35T68 157V379H12V485H68V617H208V485H338V379Z"  />
<glyph unicode="u" horiz-adv-x="598" d="M401 47Q349 -13 259 -13Q160 -13 106 50T51 228V485H192V244Q192 183 219 150T294 116Q328 116 355 131T397 171V485H538V0H401V47Z"  />
<glyph unicode="v" horiz-adv-x="570" d="M201 0L0 485H158L289 137L416 485H570L374 0H201Z"  />
<glyph unicode="w" horiz-adv-x="869" d="M544 0L443 329L345 0H179L9 485H160L265 141L363 485H524L623 146L716 485H860L709 0H544Z"  />
<glyph unicode="x" horiz-adv-x="597" d="M173 0H5L205 251L8 485H190L292 356L390 485H566L380 255L593 0H411L293 150L173 0Z"  />
<glyph unicode="y" horiz-adv-x="578" d="M125 -240L222 -24L3 485H157L293 149L423 485H574L275 -240H125Z"  />
<glyph unicode="z" horiz-adv-x="485" d="M461 115V0H18V105L270 370H38V485H447V381L189 115H461Z"  />
<glyph unicode="{" horiz-adv-x="343" d="M230 640T217 624T204 578V376Q204 323 178 299T123 271V269Q204 259 204 158V-73Q204 -135 255 -135H320V-240H238Q175 -240 134 -196T93 -78V127Q93 157 77 177T38 208T-1 218V322Q15 322 37 331T76 359T93 405V583Q93 657 133 701T238 745H320V640H255Q230 640 217 624Z"  />
<glyph unicode="|" horiz-adv-x="283" d="M94 740H189V-50H94V740Z"  />
<glyph unicode="}" horiz-adv-x="341" d="M166 745T206 701T247 583V405Q247 378 263 359T302 331T341 322V218Q325 218 303 208T264 178T247 127V-78Q247 -152 206 -196T102 -240H20V-135H85Q136 -135 136 -73V158Q136 259 217 269V271Q189 274 163 298T136 376V578Q136 607 123 623T85 640H20V745H102Q166 745 206 701Z"  />
<glyph unicode="~" horiz-adv-x="596" d="M236 354T261 342T319 308Q343 291 359 283T393 274Q450 274 460 352H559Q556 302 536 258T480 187T392 159Q360 159 335 171T278 205Q253 223 237 231T203 239Q146 239 136 161H37Q40 212 60 256T116 327T203 354Q236 354 261 342Z"  />
<glyph unicode="&#xA1;" horiz-adv-x="339" d="M132 330T109 353T86 415Q86 454 108 476T169 499Q209 499 231 477T254 415Q254 376 231 353T170 330Q132 330 109 353ZM95 -57T99 23T112 211L115 245H225L228 211Q237 103 241 23T245 -219H95Q95 -57 99 23Z"  />
<glyph unicode="&#xA2;" horiz-adv-x="592" d="M492 183T449 154T347 115V0H249V114Q153 127 99 192T45 358Q45 459 99 528T249 612V710H347V612Q452 595 508 505L411 438Q380 480 347 494V233Q387 248 420 291L516 229Q492 183 449 154ZM182 312T199 280T249 233V492Q216 476 199 442T182 359Q182 312 199 280Z"  />
<glyph unicode="&#xA3;" horiz-adv-x="562" d="M504 46T458 15T347 -16Q302 -16 263 -1T171 42L148 0L29 40Q59 95 80 156T101 262Q101 281 100 290H37V394H74Q56 453 56 520Q56 608 113 656T270 705Q441 705 499 561L388 506Q369 555 341 573T279 591Q243 591 220 574T196 522Q196 494 200 473T212 418L218 394H388V290H233L234 265Q234 202 216 143Q299 97 348 97Q378 97 397 113T443 166L533 88Q504 46 458 15Z"  />
<glyph unicode="&#xA5;" horiz-adv-x="556" d="M467 250H344V188H467V108H344V0H202V108H84V188H202V250H84V330H168L18 676H168L276 396L388 676H537L383 330H467V250Z"  />
<glyph unicode="&#xA6;" horiz-adv-x="283" d="M94 740H189V437H94V740ZM94 253H189V-50H94V253Z"  />
<glyph unicode="&#xA7;" horiz-adv-x="558" d="M497 112T497 38Q497 -52 434 -103T267 -154Q113 -154 33 -36L130 40Q162 -3 194 -23T271 -43Q314 -43 339 -25T365 28Q365 50 354 62T324 82T266 100L232 109Q153 131 106 169T58 287Q58 335 78 372T138 432Q86 476 86 552Q86 635 142 681T301 728Q366 728 420 708T512 645L424 560Q394 591 365 604T300 618Q258 618 237 602T216 557Q216 535 228 522T261 502T325 485Q387 470 428 452T498 398T526 303Q526 255 506 218T449 155Q497 112 497 38ZM188 272T199 259T229 239T296 220Q335 210 346 207Q394 229 394 288Q394 312 385 325T358 345T303 362L261 374L246 378Q217 372 203 351T188 298Q188 272 199 259Z"  />
<glyph unicode="&#xA8;" horiz-adv-x="416" d="M130 736T151 716T173 659Q173 622 151 603T96 584Q63 584 42 603T21 660Q21 697 42 716T97 736Q130 736 151 716ZM351 736T372 716T394 659Q394 622 373 603T318 584Q285 584 264 603T243 660Q243 697 264 716T318 736Q351 736 372 716Z"  />
<glyph unicode="&#xA9;" horiz-adv-x="788" d="M501 728T583 684T711 555T758 355Q758 239 712 155T583 27T395 -18Q289 -18 206 26T77 155T30 355Q30 471 76 555T206 683T395 728Q501 728 583 684ZM313 637T252 604T158 507T124 355Q124 267 157 203T252 106T394 73Q474 73 535 106T630 203T664 355Q664 443 630 507T535 604T394 637Q313 637 252 604ZM506 584T567 497L492 435Q472 462 450 475T397 489Q349 489 322 454T294 353Q294 289 320 255T397 221Q428 221 451 235T493 280L575 230Q518 126 396 126Q301 126 246 184T190 355Q190 468 246 526T396 584Q506 584 567 497Z"  />
<glyph unicode="&#xAA;" horiz-adv-x="447" d="M247 680T283 641V670H405V330H283V359Q247 320 188 320Q112 320 67 369T21 499Q21 580 66 630T188 680Q247 680 283 641ZM186 583T167 560T147 499Q147 461 166 439T218 416Q260 416 279 450V549Q269 565 254 574T218 583Q186 583 167 560Z"  />
<glyph unicode="&#xAB;" horiz-adv-x="506" d="M246 352L135 272L246 192V59L46 224V320L246 485V352ZM462 192V59L262 224V320L462 485V352L352 272L462 192Z"  />
<glyph unicode="&#xAC;" horiz-adv-x="596" d="M450 270H34V381H561V82H450V270Z"  />
<glyph unicode="&#xAE;" horiz-adv-x="788" d="M501 728T583 684T711 555T758 355Q758 239 712 155T583 27T395 -18Q289 -18 206 26T77 155T30 355Q30 471 76 555T206 683T395 728Q501 728 583 684ZM474 73T535 106T630 203T664 355Q664 443 630 507T535 604T394 637Q314 637 253 604T158 507T124 355Q124 267 158 203T253 106T394 73Q474 73 535 106ZM566 402T546 368T485 319L572 153H471L393 309H344V153H251V574H429Q497 574 531 536T566 444Q566 402 546 368ZM444 388T460 402T476 443Q476 467 461 481T413 496H344V388H413Q444 388 460 402Z"  />
<glyph unicode="&#xAF;" horiz-adv-x="342" d="M21 723H321V627H21V723Z"  />
<glyph unicode="&#xB0;" horiz-adv-x="354" d="M252 745T294 703T337 589Q337 518 295 476T178 434Q103 434 60 476T17 589Q17 660 60 702T178 745Q252 745 294 703ZM140 671T119 650T97 589Q97 551 118 530T178 509Q215 509 237 530T260 589Q260 627 238 649T178 671Q140 671 119 650Z"  />
<glyph unicode="&#xB1;" horiz-adv-x="596" d="M354 292V168H243V292H34V394H243V518H354V394H561V292H354ZM561 0H34V111H561V0Z"  />
<glyph unicode="&#xB2;" horiz-adv-x="366" d="M31 330V406Q31 406 113 488Q164 537 181 559T199 606Q199 625 187 635T152 646Q110 646 75 610L15 678Q44 712 82 728T172 744Q243 744 284 709T325 613Q325 570 300 536T216 446L195 425H333V330H31Z"  />
<glyph unicode="&#xB3;" horiz-adv-x="365" d="M325 512T325 452Q325 394 281 358T163 322Q101 322 61 348T4 409L89 469Q104 441 119 430T162 419Q181 419 191 428T201 455Q201 472 189 480T147 489H108V583H139Q190 583 190 618Q190 631 182 638T158 646Q138 646 124 638T89 606L15 670Q67 744 159 744Q229 744 271 709T314 620Q314 598 303 579T270 544Q325 512 325 452Z"  />
<glyph unicode="&#xB4;" horiz-adv-x="291" d="M101 745H270L138 592H21L101 745Z"  />
<glyph unicode="&#xB5;" horiz-adv-x="607" d="M410 47Q361 -13 279 -13Q232 -13 201 9V-240H60V485H201V237Q201 116 303 116Q337 116 364 131T406 171V485H547V0H410V47Z"  />
<glyph unicode="&#xB6;" horiz-adv-x="654" d="M531 -103H420V605H342V-103H231V326H217Q123 326 71 374T19 515Q19 627 81 668T260 710H590V605H531V-103Z"  />
<glyph unicode="&#xB7;" horiz-adv-x="292" d="M185 452T208 429T231 367Q231 328 209 306T146 283Q108 283 86 305T63 367Q63 406 86 429T147 452Q185 452 208 429Z"  />
<glyph unicode="&#xB8;" horiz-adv-x="288" d="M206 -51T236 -68T267 -135Q267 -184 228 -209T135 -234Q103 -234 72 -226T21 -202L44 -140Q59 -149 82 -155T126 -161Q145 -161 156 -155T167 -135Q167 -119 136 -110T59 -100L99 11H193L156 -51Q206 -51 236 -68Z"  />
<glyph unicode="&#xB9;" horiz-adv-x="383" d="M333 330H53V425H135V598Q109 572 75 556L40 645Q71 659 96 682T134 736H251V425H333V330Z"  />
<glyph unicode="&#xBA;" horiz-adv-x="432" d="M310 680T361 631T413 499Q413 417 362 368T216 319Q122 319 71 368T20 499Q20 582 71 631T216 680Q310 680 361 631ZM185 583T166 560T146 499Q146 462 165 439T216 416Q248 416 267 439T286 499Q286 537 267 560T216 583Q185 583 166 560Z"  />
<glyph unicode="&#xBB;" horiz-adv-x="506" d="M242 224L42 59V192L152 272L42 352V485L242 320V224ZM259 59V192L369 272L259 352V485L459 320V224L259 59Z"  />
<glyph unicode="&#xBC;" horiz-adv-x="918" d="M184 -40L654 710H748L278 -40H184ZM109 512T75 496L39 585Q70 599 95 622T134 676H251V365H333V270H53V365H135V538Q109 512 75 496ZM844 0H724V66H555V139L730 406H844V146H894V66H844V0ZM640 146H724V273L640 146Z"  />
<glyph unicode="&#xBD;" horiz-adv-x="916" d="M184 -40L654 710H748L278 -40H184ZM109 512T75 496L39 585Q70 599 95 622T134 676H251V365H333V270H53V365H135V538Q109 512 75 496ZM579 0V76Q608 106 628 125T661 157Q713 207 730 229T748 276Q748 295 736 305T701 316Q659 316 623 280L564 348Q593 382 631 398T721 414Q791 414 832 379T873 283Q873 240 848 206T764 116L743 95H882V0H579Z"  />
<glyph unicode="&#xBE;" horiz-adv-x="900" d="M166 -40L636 710H730L260 -40H166ZM324 334T281 298T163 262Q102 262 61 288T3 349L89 409Q104 381 119 370T162 359Q181 359 191 368T201 395Q201 412 189 420T147 429H108V523H139Q190 523 190 558Q190 571 182 578T158 586Q138 586 124 578T89 546L15 610Q67 684 159 684Q229 684 271 649T313 560Q313 538 302 519T270 484Q324 452 324 392Q324 334 281 298ZM825 0H705V66H536V139L711 406H825V146H875V66H825V0ZM621 146H705V273L621 146Z"  />
<glyph unicode="&#xBF;" horiz-adv-x="547" d="M346 499T369 477T392 415Q392 376 369 353T307 330Q269 330 246 353T223 415Q223 454 245 476T307 499Q346 499 369 477ZM380 189T366 162T333 118T280 78Q240 48 220 23T199 -39Q200 -78 226 -99T299 -120Q339 -120 369 -101T435 -27L535 -112Q490 -175 430 -205T289 -235Q181 -235 119 -183T57 -38Q57 13 74 49T116 108T174 154Q208 176 224 192T240 230V260H380V227Q380 189 366 162Z"  />
<glyph unicode="&#xC0;" horiz-adv-x="762" d="M396 925L476 772H345L213 925H396ZM165 0H2L282 710H477L757 0H588L527 165H227L165 0ZM279 301H476L378 565L279 301Z"  />
<glyph unicode="&#xC1;" horiz-adv-x="762" d="M367 925H550L418 772H287L367 925ZM165 0H2L282 710H477L757 0H588L527 165H227L165 0ZM279 301H476L378 565L279 301Z"  />
<glyph unicode="&#xC2;" horiz-adv-x="762" d="M285 925H478L596 782H445L381 852L318 782H168L285 925ZM165 0H2L282 710H477L757 0H588L527 165H227L165 0ZM279 301H476L378 565L279 301Z"  />
<glyph unicode="&#xC3;" horiz-adv-x="762" d="M299 834T292 826T281 795H184Q196 929 295 929Q328 929 370 914Q394 905 414 899T447 893Q463 893 471 902T483 936H579Q576 868 546 833T464 797Q426 797 373 817Q329 834 312 834Q299 834 292 826ZM165 0H2L282 710H477L757 0H588L527 165H227L165 0ZM279 301H476L378 565L279 301Z"  />
<glyph unicode="&#xC4;" horiz-adv-x="762" d="M226 758T204 778T182 839Q182 877 204 898T262 919Q297 919 319 898T342 838Q342 799 319 779T261 758Q226 758 204 778ZM465 758T443 778T421 839Q421 877 443 898T501 919Q536 919 558 898T581 838Q581 799 558 779T500 758Q465 758 443 778ZM165 0H2L282 710H477L757 0H588L527 165H227L165 0ZM279 301H476L378 565L279 301Z"  />
<glyph unicode="&#xC5;" horiz-adv-x="762" d="M329 752T299 781T269 860Q269 910 299 939T381 969Q433 969 463 940T493 860Q493 811 463 782T381 752Q329 752 299 781ZM356 914T343 900T329 860Q329 835 342 822T381 808Q406 808 420 821T435 860Q435 885 421 899T381 914Q356 914 343 900ZM165 0H2L282 710H477L757 0H588L527 165H227L165 0ZM279 301H476L378 565L279 301Z"  />
<glyph unicode="&#xC6;" horiz-adv-x="998" d="M912 430V298H619V137H969V0H464V165H215L128 0H-36L352 710H969V573H619V430H912ZM429 573L286 301H464V573H429Z"  />
<glyph unicode="&#xC7;" horiz-adv-x="747" d="M662 85T585 36T409 -18L389 -51Q439 -51 469 -68T500 -135Q500 -184 461 -209T368 -234Q336 -234 305 -226T254 -202L277 -140Q292 -149 315 -155T359 -161Q378 -161 389 -155T400 -135Q400 -119 369 -110T292 -100L323 -13Q191 6 115 101T38 355Q38 474 82 558T206 685T393 728Q492 728 567 692T700 576L590 480Q544 540 499 567T391 594Q300 594 247 532T193 355Q193 241 245 179T389 116Q458 116 503 149T593 256L713 177Q662 85 585 36Z"  />
<glyph unicode="&#xC8;" horiz-adv-x="602" d="M262 772L130 925H313L393 772H262ZM222 430H515V298H222V137H572V0H67V710H572V573H222V430Z"  />
<glyph unicode="&#xC9;" horiz-adv-x="602" d="M284 925H467L335 772H204L284 925ZM222 430H515V298H222V137H572V0H67V710H572V573H222V430Z"  />
<glyph unicode="&#xCA;" horiz-adv-x="602" d="M298 852L235 782H85L202 925H395L513 782H362L298 852ZM222 430H515V298H222V137H572V0H67V710H572V573H222V430Z"  />
<glyph unicode="&#xCB;" horiz-adv-x="602" d="M214 919T236 898T259 838Q259 799 236 779T178 758Q143 758 121 778T99 839Q99 877 121 898T179 919Q214 919 236 898ZM453 919T475 898T498 838Q498 799 475 779T417 758Q382 758 360 778T338 839Q338 877 360 898T418 919Q453 919 475 898ZM222 430H515V298H222V137H572V0H67V710H572V573H222V430Z"  />
<glyph unicode="&#xCC;" horiz-adv-x="295" d="M111 772L-21 925H162L242 772H111ZM71 710H226V0H71V710Z"  />
<glyph unicode="&#xCD;" horiz-adv-x="295" d="M133 925H316L184 772H53L133 925ZM71 710H226V0H71V710Z"  />
<glyph unicode="&#xCE;" horiz-adv-x="295" d="M147 852L84 782H-66L51 925H244L362 782H211L147 852ZM71 710H226V0H71V710Z"  />
<glyph unicode="&#xCF;" horiz-adv-x="295" d="M63 919T85 898T108 838Q108 799 85 779T27 758Q-8 758 -30 778T-52 839Q-52 877 -30 898T28 919Q63 919 85 898ZM302 919T324 898T347 838Q347 799 324 779T266 758Q231 758 209 778T187 839Q187 877 209 898T267 919Q302 919 324 898ZM71 710H226V0H71V710Z"  />
<glyph unicode="&#xD0;" horiz-adv-x="740" d="M448 710T530 670T659 550T706 355Q706 240 660 161T531 41T341 0H69V312H23V423H69V710H340Q448 710 530 670ZM405 137T450 162T521 237T547 355Q547 424 521 473T450 547T350 573H224V423H372V312H224V137H350Q405 137 450 162Z"  />
<glyph unicode="&#xD1;" horiz-adv-x="783" d="M585 868T555 833T473 797Q435 797 382 817Q338 834 321 834Q308 834 301 826T290 795H193Q205 929 304 929Q337 929 379 914Q403 905 423 899T456 893Q472 893 480 902T492 936H588Q585 868 555 833ZM224 492H222V0H67V710H256L558 218H560V710H715V0H527L224 492Z"  />
<glyph unicode="&#xD2;" horiz-adv-x="792" d="M359 772L227 925H410L490 772H359ZM502 728T582 686T708 559T754 355Q754 235 709 151T582 25T396 -18Q291 -18 210 24T84 151T38 355Q38 475 83 559T209 685T396 728Q502 728 582 686ZM305 594T251 532T197 355Q197 242 251 179T396 116Q486 116 540 179T595 355Q595 469 541 531T396 594Q305 594 251 532Z"  />
<glyph unicode="&#xD3;" horiz-adv-x="792" d="M381 925H564L432 772H301L381 925ZM502 728T582 686T708 559T754 355Q754 235 709 151T582 25T396 -18Q291 -18 210 24T84 151T38 355Q38 475 83 559T209 685T396 728Q502 728 582 686ZM305 594T251 532T197 355Q197 242 251 179T396 116Q486 116 540 179T595 355Q595 469 541 531T396 594Q305 594 251 532Z"  />
<glyph unicode="&#xD4;" horiz-adv-x="792" d="M395 852L332 782H182L299 925H492L610 782H459L395 852ZM502 728T582 686T708 559T754 355Q754 235 709 151T582 25T396 -18Q291 -18 210 24T84 151T38 355Q38 475 83 559T209 685T396 728Q502 728 582 686ZM305 594T251 532T197 355Q197 242 251 179T396 116Q486 116 540 179T595 355Q595 469 541 531T396 594Q305 594 251 532Z"  />
<glyph unicode="&#xD5;" horiz-adv-x="792" d="M590 868T560 833T478 797Q440 797 387 817Q343 834 326 834Q313 834 306 826T295 795H198Q210 929 309 929Q342 929 384 914Q408 905 428 899T461 893Q477 893 485 902T497 936H593Q590 868 560 833ZM502 728T582 686T708 559T754 355Q754 235 709 151T582 25T396 -18Q291 -18 210 24T84 151T38 355Q38 475 83 559T209 685T396 728Q502 728 582 686ZM305 594T251 532T197 355Q197 242 251 179T396 116Q486 116 540 179T595 355Q595 469 541 531T396 594Q305 594 251 532Z"  />
<glyph unicode="&#xD6;" horiz-adv-x="792" d="M311 919T333 898T356 838Q356 799 333 779T275 758Q240 758 218 778T196 839Q196 877 218 898T276 919Q311 919 333 898ZM550 919T572 898T595 838Q595 799 572 779T514 758Q479 758 457 778T435 839Q435 877 457 898T515 919Q550 919 572 898ZM502 728T582 686T708 559T754 355Q754 235 709 151T582 25T396 -18Q291 -18 210 24T84 151T38 355Q38 475 83 559T209 685T396 728Q502 728 582 686ZM305 594T251 532T197 355Q197 242 251 179T396 116Q486 116 540 179T595 355Q595 469 541 531T396 594Q305 594 251 532Z"  />
<glyph unicode="&#xD7;" horiz-adv-x="563" d="M110 0L34 76L206 247L34 417L110 493L281 322L452 493L527 416L357 246L528 76L453 0L282 172L110 0Z"  />
<glyph unicode="&#xD8;" horiz-adv-x="775" d="M697 589T724 518T751 355Q751 235 706 151T579 25T393 -18Q280 -18 196 30L149 -33L82 17L130 82Q84 129 60 198T35 355Q35 475 80 559T206 685T393 728Q499 728 579 686L622 743L689 693L647 637Q697 589 724 518ZM194 272T226 211L493 569Q450 594 393 594Q302 594 248 532T194 355Q194 272 226 211ZM483 116T537 179T592 355Q592 451 553 510L283 147Q331 116 393 116Q483 116 537 179Z"  />
<glyph unicode="&#xD9;" horiz-adv-x="731" d="M328 772L196 925H379L459 772H328ZM665 178T627 114T520 16T365 -18Q279 -18 211 15T105 113T66 267V710H221V267Q221 193 260 155T365 116Q432 116 471 154T510 267V710H665V267Q665 178 627 114Z"  />
<glyph unicode="&#xDA;" horiz-adv-x="731" d="M350 925H533L401 772H270L350 925ZM665 178T627 114T520 16T365 -18Q279 -18 211 15T105 113T66 267V710H221V267Q221 193 260 155T365 116Q432 116 471 154T510 267V710H665V267Q665 178 627 114Z"  />
<glyph unicode="&#xDB;" horiz-adv-x="731" d="M364 852L301 782H151L268 925H461L579 782H428L364 852ZM665 178T627 114T520 16T365 -18Q279 -18 211 15T105 113T66 267V710H221V267Q221 193 260 155T365 116Q432 116 471 154T510 267V710H665V267Q665 178 627 114Z"  />
<glyph unicode="&#xDC;" horiz-adv-x="731" d="M281 919T303 898T326 838Q326 799 303 779T245 758Q210 758 188 778T166 839Q166 877 188 898T246 919Q281 919 303 898ZM520 919T542 898T565 838Q565 799 542 779T484 758Q449 758 427 778T405 839Q405 877 427 898T485 919Q520 919 542 898ZM665 178T627 114T520 16T365 -18Q279 -18 211 15T105 113T66 267V710H221V267Q221 193 260 155T365 116Q432 116 471 154T510 267V710H665V267Q665 178 627 114Z"  />
<glyph unicode="&#xDD;" horiz-adv-x="664" d="M322 970H491L359 817H242L322 970ZM254 0V279L-8 710H169L336 427L506 710H672L409 279V0H254Z"  />
<glyph unicode="&#xDE;" horiz-adv-x="650" d="M500 608T565 541T631 364Q631 250 564 181T365 111H226V0H71V710H226V608H365Q500 608 565 541ZM357 247Q414 247 443 277T472 365Q472 471 355 471H226V247H357Z"  />
<glyph unicode="&#xDF;" horiz-adv-x="635" d="M526 380T565 330T604 210Q604 144 571 94T480 16T353 -12Q275 -12 230 14L281 120Q310 102 353 102Q402 102 432 130T463 210Q463 270 419 300T276 331V444Q328 446 362 475T396 552Q396 591 373 611T308 631Q257 631 229 595T201 488V0H60V488Q60 564 89 622T174 712T308 745Q375 745 427 721T508 652T537 552Q537 508 515 470T452 404Q526 380 565 330Z"  />
<glyph unicode="&#xE0;" horiz-adv-x="596" d="M273 592L141 745H310L390 592H273ZM349 498T399 442V485H535V0H399V43Q349 -13 263 -13Q193 -13 140 19T58 109T29 242Q29 317 58 375T140 466T263 498Q349 498 399 442ZM235 383T203 345T170 242Q170 177 202 139T291 101Q325 101 351 116T395 159V325Q378 353 352 368T291 383Q235 383 203 345Z"  />
<glyph unicode="&#xE1;" horiz-adv-x="596" d="M282 745H451L319 592H202L282 745ZM349 498T399 442V485H535V0H399V43Q349 -13 263 -13Q193 -13 140 19T58 109T29 242Q29 317 58 375T140 466T263 498Q349 498 399 442ZM235 383T203 345T170 242Q170 177 202 139T291 101Q325 101 351 116T395 159V325Q378 353 352 368T291 383Q235 383 203 345Z"  />
<glyph unicode="&#xE2;" horiz-adv-x="596" d="M296 672L233 602H97L214 745H379L497 602H360L296 672ZM349 498T399 442V485H535V0H399V43Q349 -13 263 -13Q193 -13 140 19T58 109T29 242Q29 317 58 375T140 466T263 498Q349 498 399 442ZM235 383T203 345T170 242Q170 177 202 139T291 101Q325 101 351 116T395 159V325Q378 353 352 368T291 383Q235 383 203 345Z"  />
<glyph unicode="&#xE3;" horiz-adv-x="596" d="M491 668T461 633T379 597Q341 597 288 617Q244 634 227 634Q214 634 207 626T196 595H99Q111 729 210 729Q243 729 285 714Q309 705 329 699T362 693Q378 693 386 702T398 736H494Q491 668 461 633ZM349 498T399 442V485H535V0H399V43Q349 -13 263 -13Q193 -13 140 19T58 109T29 242Q29 317 58 375T140 466T263 498Q349 498 399 442ZM235 383T203 345T170 242Q170 177 202 139T291 101Q325 101 351 116T395 159V325Q378 353 352 368T291 383Q235 383 203 345Z"  />
<glyph unicode="&#xE4;" horiz-adv-x="596" d="M219 736T240 716T262 659Q262 622 240 603T185 584Q152 584 131 603T110 660Q110 697 131 716T186 736Q219 736 240 716ZM440 736T461 716T483 659Q483 622 462 603T407 584Q374 584 353 603T332 660Q332 697 353 716T407 736Q440 736 461 716ZM349 498T399 442V485H535V0H399V43Q349 -13 263 -13Q193 -13 140 19T58 109T29 242Q29 317 58 375T140 466T263 498Q349 498 399 442ZM235 383T203 345T170 242Q170 177 202 139T291 101Q325 101 351 116T395 159V325Q378 353 352 368T291 383Q235 383 203 345Z"  />
<glyph unicode="&#xE5;" horiz-adv-x="596" d="M348 749T378 720T408 640Q408 591 378 562T296 532Q244 532 214 561T184 640Q184 690 214 719T296 749Q348 749 378 720ZM271 694T258 680T244 640Q244 615 257 602T296 588Q321 588 335 601T350 640Q350 665 336 679T296 694Q271 694 258 680ZM349 498T399 442V485H535V0H399V43Q349 -13 263 -13Q193 -13 140 19T58 109T29 242Q29 317 58 375T140 466T263 498Q349 498 399 442ZM235 383T203 345T170 242Q170 177 202 139T291 101Q325 101 351 116T395 159V325Q378 353 352 368T291 383Q235 383 203 345Z"  />
<glyph unicode="&#xE6;" horiz-adv-x="938" d="M905 218T903 203H542Q552 150 585 121T670 92Q748 92 793 151L892 89Q819 -15 678 -15Q587 -15 529 41V0H402V45Q352 -13 266 -13Q196 -13 143 19T60 109T31 242Q31 317 60 375T142 466T266 498Q351 498 402 441V485H529V447Q583 499 666 499Q740 499 794 468T876 380T905 250Q905 218 903 203ZM611 392T584 368T545 301H764Q754 344 726 368T655 392Q611 392 584 368ZM381 353T355 368T293 383Q238 383 206 345T173 242Q173 177 205 139T293 101Q328 101 354 116T397 159V325Q381 353 355 368Z"  />
<glyph unicode="&#xE7;" horiz-adv-x="525" d="M475 51T423 21T298 -12L275 -51Q325 -51 355 -68T386 -135Q386 -184 347 -209T254 -234Q222 -234 191 -226T140 -202L163 -140Q178 -149 201 -155T245 -161Q264 -161 275 -155T286 -135Q286 -119 255 -110T178 -100L213 -3Q127 17 79 82T31 242Q31 317 62 374T151 464T290 496Q429 496 496 393L404 314Q376 349 351 363T292 378Q235 378 204 342T173 244Q173 180 204 143T291 106Q329 106 357 123T407 174L505 103Q475 51 423 21Z"  />
<glyph unicode="&#xE8;" horiz-adv-x="565" d="M294 745L374 592H257L125 745H294ZM532 226T529 203H168Q178 150 212 121T297 92Q375 92 420 151L519 89Q443 -15 296 -15Q212 -15 152 17T61 109T29 246Q29 321 59 378T147 467T283 499Q361 499 417 468T502 380T532 250Q532 226 529 203ZM238 392T210 367T171 301H390Q380 344 353 368T282 392Q238 392 210 367Z"  />
<glyph unicode="&#xE9;" horiz-adv-x="565" d="M266 745H435L303 592H186L266 745ZM532 226T529 203H168Q178 150 212 121T297 92Q375 92 420 151L519 89Q443 -15 296 -15Q212 -15 152 17T61 109T29 246Q29 321 59 378T147 467T283 499Q361 499 417 468T502 380T532 250Q532 226 529 203ZM238 392T210 367T171 301H390Q380 344 353 368T282 392Q238 392 210 367Z"  />
<glyph unicode="&#xEA;" horiz-adv-x="565" d="M198 745H363L481 602H344L280 672L217 602H81L198 745ZM532 226T529 203H168Q178 150 212 121T297 92Q375 92 420 151L519 89Q443 -15 296 -15Q212 -15 152 17T61 109T29 246Q29 321 59 378T147 467T283 499Q361 499 417 468T502 380T532 250Q532 226 529 203ZM238 392T210 367T171 301H390Q380 344 353 368T282 392Q238 392 210 367Z"  />
<glyph unicode="&#xEB;" horiz-adv-x="565" d="M136 584T115 603T94 660Q94 697 115 716T170 736Q203 736 224 716T246 659Q246 622 224 603T169 584Q136 584 115 603ZM358 584T337 603T316 660Q316 697 337 716T391 736Q424 736 445 716T467 659Q467 622 446 603T391 584Q358 584 337 603ZM532 226T529 203H168Q178 150 212 121T297 92Q375 92 420 151L519 89Q443 -15 296 -15Q212 -15 152 17T61 109T29 246Q29 321 59 378T147 467T283 499Q361 499 417 468T502 380T532 250Q532 226 529 203ZM238 392T210 367T171 301H390Q380 344 353 368T282 392Q238 392 210 367Z"  />
<glyph unicode="&#xEC;" horiz-adv-x="262" d="M107 592L-25 745H144L224 592H107ZM60 485H201V0H60V485Z"  />
<glyph unicode="&#xED;" horiz-adv-x="262" d="M116 745H285L153 592H36L116 745ZM60 485H201V0H60V485Z"  />
<glyph unicode="&#xEE;" horiz-adv-x="262" d="M130 672L67 602H-69L48 745H213L331 602H194L130 672ZM60 485H201V0H60V485Z"  />
<glyph unicode="&#xEF;" horiz-adv-x="262" d="M53 736T74 716T96 659Q96 622 74 603T19 584Q-14 584 -35 603T-56 660Q-56 697 -35 716T20 736Q53 736 74 716ZM274 736T295 716T317 659Q317 622 296 603T241 584Q208 584 187 603T166 660Q166 697 187 716T241 736Q274 736 295 716ZM60 485H201V0H60V485Z"  />
<glyph unicode="&#xF0;" horiz-adv-x="594" d="M563 492T563 279Q563 190 531 123T436 20T288 -17Q210 -17 152 15T63 104T31 233Q31 303 63 358T154 445T285 477Q351 477 395 443L397 445Q357 514 283 566L117 493L77 582L179 627Q163 635 118 656L169 753Q247 725 316 688L441 743L481 653L411 622Q563 492 563 279ZM349 98T385 140T422 267Q422 288 419 304Q376 368 298 368Q240 368 207 333T173 234Q173 169 203 134T289 98Q349 98 385 140Z"  />
<glyph unicode="&#xF1;" horiz-adv-x="608" d="M498 668T468 633T386 597Q348 597 295 617Q251 634 234 634Q221 634 214 626T203 595H106Q118 729 217 729Q250 729 292 714Q316 705 336 699T369 693Q385 693 393 702T405 736H501Q498 668 468 633ZM445 498T501 435T557 257V0H416V241Q416 302 388 335T308 369Q273 369 245 353T201 310V0H60V485H197V434Q250 498 343 498Q445 498 501 435Z"  />
<glyph unicode="&#xF2;" horiz-adv-x="579" d="M265 592L133 745H302L382 592H265ZM371 498T430 466T519 376T550 242Q550 166 520 108T430 18T289 -14Q207 -14 149 18T60 108T29 242Q29 318 59 376T148 466T289 498Q371 498 430 466ZM235 383T203 345T170 242Q170 178 202 140T289 101Q343 101 376 139T409 242Q409 306 376 344T289 383Q235 383 203 345Z"  />
<glyph unicode="&#xF3;" horiz-adv-x="579" d="M274 745H443L311 592H194L274 745ZM371 498T430 466T519 376T550 242Q550 166 520 108T430 18T289 -14Q207 -14 149 18T60 108T29 242Q29 318 59 376T148 466T289 498Q371 498 430 466ZM235 383T203 345T170 242Q170 178 202 140T289 101Q343 101 376 139T409 242Q409 306 376 344T289 383Q235 383 203 345Z"  />
<glyph unicode="&#xF4;" horiz-adv-x="579" d="M288 672L225 602H89L206 745H371L489 602H352L288 672ZM371 498T430 466T519 376T550 242Q550 166 520 108T430 18T289 -14Q207 -14 149 18T60 108T29 242Q29 318 59 376T148 466T289 498Q371 498 430 466ZM235 383T203 345T170 242Q170 178 202 140T289 101Q343 101 376 139T409 242Q409 306 376 344T289 383Q235 383 203 345Z"  />
<glyph unicode="&#xF5;" horiz-adv-x="579" d="M483 668T453 633T371 597Q333 597 280 617Q236 634 219 634Q206 634 199 626T188 595H91Q103 729 202 729Q235 729 277 714Q301 705 321 699T354 693Q370 693 378 702T390 736H486Q483 668 453 633ZM371 498T430 466T519 376T550 242Q550 166 520 108T430 18T289 -14Q207 -14 149 18T60 108T29 242Q29 318 59 376T148 466T289 498Q371 498 430 466ZM235 383T203 345T170 242Q170 178 202 140T289 101Q343 101 376 139T409 242Q409 306 376 344T289 383Q235 383 203 345Z"  />
<glyph unicode="&#xF6;" horiz-adv-x="579" d="M212 736T233 716T255 659Q255 622 233 603T178 584Q145 584 124 603T103 660Q103 697 124 716T179 736Q212 736 233 716ZM433 736T454 716T476 659Q476 622 455 603T400 584Q367 584 346 603T325 660Q325 697 346 716T400 736Q433 736 454 716ZM371 498T430 466T519 376T550 242Q550 166 520 108T430 18T289 -14Q207 -14 149 18T60 108T29 242Q29 318 59 376T148 466T289 498Q371 498 430 466ZM235 383T203 345T170 242Q170 178 202 140T289 101Q343 101 376 139T409 242Q409 306 376 344T289 383Q235 383 203 345Z"  />
<glyph unicode="&#xF7;" horiz-adv-x="596" d="M337 526T359 504T382 442Q382 403 360 381T298 358Q258 358 236 380T214 442Q214 481 236 503T298 526Q337 526 359 504ZM34 311H561V200H34V311ZM337 153T359 131T382 69Q382 29 360 7T298 -15Q258 -15 236 7T214 69Q214 108 236 130T298 153Q337 153 359 131Z"  />
<glyph unicode="&#xF8;" horiz-adv-x="585" d="M516 396T534 348T552 242Q552 166 522 108T432 18T291 -14Q220 -14 167 10L137 -31L77 14L104 51Q68 85 49 133T30 242Q30 318 60 376T150 466T291 498Q363 498 418 473L450 515L510 470L481 430Q516 396 534 348ZM171 197T188 163L343 371Q321 383 291 383Q236 383 204 345T171 242Q171 197 188 163ZM345 101T377 139T410 242Q410 281 395 316L242 111Q262 101 291 101Q345 101 377 139Z"  />
<glyph unicode="&#xF9;" horiz-adv-x="598" d="M275 592L143 745H312L392 592H275ZM401 47Q349 -13 259 -13Q160 -13 106 50T51 228V485H192V244Q192 183 219 150T294 116Q328 116 355 131T397 171V485H538V0H401V47Z"  />
<glyph unicode="&#xFA;" horiz-adv-x="598" d="M284 745H453L321 592H204L284 745ZM401 47Q349 -13 259 -13Q160 -13 106 50T51 228V485H192V244Q192 183 219 150T294 116Q328 116 355 131T397 171V485H538V0H401V47Z"  />
<glyph unicode="&#xFB;" horiz-adv-x="598" d="M298 672L235 602H99L216 745H381L499 602H362L298 672ZM401 47Q349 -13 259 -13Q160 -13 106 50T51 228V485H192V244Q192 183 219 150T294 116Q328 116 355 131T397 171V485H538V0H401V47Z"  />
<glyph unicode="&#xFC;" horiz-adv-x="598" d="M221 736T242 716T264 659Q264 622 242 603T187 584Q154 584 133 603T112 660Q112 697 133 716T188 736Q221 736 242 716ZM442 736T463 716T485 659Q485 622 464 603T409 584Q376 584 355 603T334 660Q334 697 355 716T409 736Q442 736 463 716ZM401 47Q349 -13 259 -13Q160 -13 106 50T51 228V485H192V244Q192 183 219 150T294 116Q328 116 355 131T397 171V485H538V0H401V47Z"  />
<glyph unicode="&#xFD;" horiz-adv-x="578" d="M274 745H443L311 592H194L274 745ZM125 -240L222 -24L3 485H157L293 149L423 485H574L275 -240H125Z"  />
<glyph unicode="&#xFE;" horiz-adv-x="599" d="M252 499T333 499Q403 499 456 467T538 377T567 243Q567 168 538 110T456 19T333 -13Q248 -13 201 39V-240H60V713H201V448Q252 499 333 499ZM271 384T244 369T201 325V160Q217 132 244 117T305 102Q361 102 393 140T426 243Q426 308 394 346T305 384Q271 384 244 369Z"  />
<glyph unicode="&#xFF;" horiz-adv-x="578" d="M145 584T124 603T103 660Q103 697 124 716T179 736Q212 736 233 716T255 659Q255 622 233 603T178 584Q145 584 124 603ZM367 584T346 603T325 660Q325 697 346 716T400 736Q433 736 454 716T476 659Q476 622 455 603T400 584Q367 584 346 603ZM125 -240L222 -24L3 485H157L293 149L423 485H574L275 -240H125Z"  />
<glyph unicode="&#x131;" horiz-adv-x="262" d="M60 485H201V0H60V485Z"  />
<glyph unicode="&#x152;" horiz-adv-x="1081" d="M997 430V298H705V137H1052V0H552V35Q479 -18 379 -18Q276 -18 197 24T74 151T29 355Q29 475 73 559T197 685T379 728Q479 728 552 675V710H1052V573H705V430H997ZM442 116T484 139T552 206V504Q526 548 484 571T388 594Q297 594 243 532T189 355Q189 242 243 179T388 116Q442 116 484 139Z"  />
<glyph unicode="&#x153;" horiz-adv-x="944" d="M911 226T908 203H547Q557 150 591 121T676 92Q754 92 799 151L898 89Q822 -15 675 -15Q548 -15 482 68Q451 28 403 7T292 -14Q210 -14 151 18T62 108T31 242Q31 318 61 376T151 466T292 498Q353 498 401 478T480 418Q510 457 557 478T662 499Q740 499 796 468T881 380T911 250Q911 226 908 203ZM617 392T589 367T550 301H769Q759 344 732 368T661 392Q617 392 589 367ZM346 101T379 139T412 242Q412 306 379 344T292 383Q238 383 206 345T173 242Q173 178 205 140T292 101Q346 101 379 139Z"  />
<glyph unicode="&#x192;" horiz-adv-x="550" d="M465 744T495 734T548 705L492 607Q467 625 445 625Q421 625 403 608T379 556L367 485H479L459 379H348L306 140Q297 89 268 54T199 0T117 -18Q51 -18 1 21L58 119Q81 101 104 101Q128 101 146 118T170 170L207 379H115L134 485H226L244 586Q257 662 312 703T433 744Q465 744 495 734Z"  />
<glyph unicode="&#x237;" horiz-adv-x="262" d="M201 -156T148 -202T16 -249Q-41 -249 -92 -219L-44 -104Q-19 -120 9 -120Q31 -120 45 -106T60 -61V485H201V-53Q201 -156 148 -202Z"  />
<glyph unicode="&#x2C6;" horiz-adv-x="442" d="M220 672L157 602H21L138 745H303L421 602H284L220 672Z"  />
<glyph unicode="&#x2C7;" horiz-adv-x="442" d="M21 745H158L222 675L285 745H421L304 602H139L21 745Z"  />
<glyph unicode="&#x2D8;" horiz-adv-x="402" d="M372 663T327 623T203 582Q123 582 76 623T21 745H115Q121 710 144 694T202 677Q236 677 258 694T288 745H381Q372 663 327 623Z"  />
<glyph unicode="&#x2D9;" horiz-adv-x="203" d="M136 740T158 719T181 659Q181 620 158 600T100 580Q65 580 43 600T21 660Q21 699 43 719T101 740Q136 740 158 719Z"  />
<glyph unicode="&#x2DA;" horiz-adv-x="266" d="M185 749T215 720T245 640Q245 591 215 562T133 532Q81 532 51 561T21 640Q21 690 51 719T133 749Q185 749 215 720ZM108 694T95 680T81 640Q81 615 94 602T133 588Q158 588 172 601T187 640Q187 665 173 679T133 694Q108 694 95 680Z"  />
<glyph unicode="&#x2DC;" horiz-adv-x="437" d="M413 668T383 633T301 597Q263 597 210 617Q166 634 149 634Q136 634 129 626T118 595H21Q33 729 132 729Q165 729 207 714Q231 705 251 699T284 693Q300 693 308 702T320 736H416Q413 668 383 633Z"  />
<glyph unicode="&#x2DD;" horiz-adv-x="487" d="M102 745H271L139 592H22L102 745ZM298 745H467L335 592H218L298 745Z"  />
<glyph unicode="&#x394;" horiz-adv-x="696" d="M263 710H427L687 0H6L263 710ZM346 548L197 132H495L346 548Z"  />
<glyph unicode="&#x3A9;" horiz-adv-x="715" d="M675 301T646 236T558 136H657V0H407V127Q516 187 516 376Q516 596 357 596Q282 596 241 544T199 376Q199 188 306 127V0H56V136L162 133Q102 166 71 232T40 394Q40 504 80 579T191 691T357 728Q451 728 523 691T635 579T675 394Q675 301 646 236Z"  />
<glyph unicode="&#x3C0;" horiz-adv-x="650" d="M524 164Q524 107 567 107Q583 107 600 112L624 5Q590 -9 546 -9Q465 -9 425 34T384 157V379H241V0H101V379H12V485H638V379H524V164Z"  />
<glyph unicode="&#x58F;" horiz-adv-x="683" d="M633 216V135H533V0H378V135H238V216H378V279H238V359H378V459Q378 523 350 556T273 590Q225 590 197 557T169 459V420H14V459Q14 542 47 602T140 693T273 724Q348 724 407 693T499 602T533 459V359H633V279H533V216H633Z"  />
<glyph unicode="&#x9F3;" horiz-adv-x="607" d="M429 415T472 391T540 322T565 220Q565 155 534 102T445 17T307 -15Q202 -15 149 43T95 196V459H34V572H95V581Q95 611 80 626T34 641V756Q120 756 173 710T226 581V572H467V459H226V196Q226 146 244 125T307 103Q367 103 400 134T434 220Q434 258 415 277T363 297Q336 297 317 283L262 382Q308 415 373 415Q429 415 472 391Z"  />
<glyph unicode="&#xE3F;" horiz-adv-x="673" d="M575 335T603 293T631 194Q631 139 604 96T522 26T387 0H382V-64H289V0H73V676H289V740H382V676Q499 674 555 625T611 499Q611 408 517 357Q575 335 603 293ZM289 549H217V399H289V549ZM462 541T382 548V400Q462 409 462 476Q462 541 382 548ZM217 284V120H289V284H217ZM431 121T456 144T482 205Q482 281 382 284V120Q431 121 456 144Z"  />
<glyph unicode="&#x17DB;" horiz-adv-x="463" d="M337 -10Q307 -15 280 -15Q211 -15 158 8T75 71T45 163Q45 217 74 250T155 284Q182 284 206 273V336H55V419H206V443Q159 456 120 490T55 570L146 690Q201 666 264 666Q315 666 363 689L405 597Q373 581 337 572T265 563Q221 563 194 574L187 565Q228 515 337 509V419H418V336H337V-10ZM196 197T173 197Q146 197 146 163Q146 137 161 119T206 93V170Q196 197 173 197Z"  />
<glyph unicode="&#x2013;" horiz-adv-x="502" d="M1 323H501V212H1V323Z"  />
<glyph unicode="&#x2014;" horiz-adv-x="1002" d="M1 323H1001V212H1V323Z"  />
<glyph unicode="&#x2018;" horiz-adv-x="292" d="M60 583T97 639T190 724L223 672Q165 634 148 563Q190 562 209 542T229 480Q229 438 207 416T142 394Q99 394 80 422T60 509Q60 583 97 639Z"  />
<glyph unicode="&#x2019;" horiz-adv-x="283" d="M223 535T186 479T93 394L60 446Q118 484 135 554Q93 555 74 575T54 638Q54 680 76 702T141 724Q184 724 203 696T223 609Q223 535 186 479Z"  />
<glyph unicode="&#x201A;" horiz-adv-x="292" d="M231 -20T194 -76T101 -161L68 -109Q126 -71 143 -1Q101 0 82 20T63 83Q63 125 85 147T150 169Q193 169 212 141T231 54Q231 -20 194 -76Z"  />
<glyph unicode="&#x201C;" horiz-adv-x="505" d="M59 583T96 639T189 724L222 672Q164 634 147 563Q189 562 208 542T228 480Q228 438 206 416T141 394Q98 394 79 422T59 509Q59 583 96 639ZM272 583T309 639T403 724L435 672Q377 634 360 563Q402 562 421 542T441 480Q441 394 354 394Q311 394 292 422T272 509Q272 583 309 639Z"  />
<glyph unicode="&#x201D;" horiz-adv-x="505" d="M232 535T195 479T102 394L70 446Q128 485 145 554Q103 555 84 575T64 638Q64 680 86 702T151 724Q194 724 213 696T232 609Q232 535 195 479ZM446 535T409 479T316 394L283 446Q341 484 358 554Q316 555 297 575T277 638Q277 680 299 702T364 724Q407 724 426 696T446 609Q446 535 409 479Z"  />
<glyph unicode="&#x201E;" horiz-adv-x="505" d="M231 -20T194 -76T101 -161L68 -109Q126 -71 143 -1Q101 0 82 20T63 83Q63 125 85 147T150 169Q193 169 212 141T231 54Q231 -20 194 -76ZM445 -20T408 -76T315 -161L282 -109Q340 -71 357 -1Q315 0 296 20T276 83Q276 125 298 147T363 169Q406 169 425 141T445 54Q445 -20 408 -76Z"  />
<glyph unicode="&#x2020;" horiz-adv-x="465" d="M177 -160V375H27V485H177V710H288V485H438V375H288V-160H177Z"  />
<glyph unicode="&#x2021;" horiz-adv-x="465" d="M438 45H288V-160H177V45H27V155H177V375H27V485H177V710H288V485H438V375H288V155H438V45Z"  />
<glyph unicode="&#x2022;" horiz-adv-x="344" d="M237 498T273 462T310 359Q310 294 274 258T171 222Q106 222 70 258T34 359Q34 425 70 461T171 498Q237 498 273 462Z"  />
<glyph unicode="&#x2026;" horiz-adv-x="1002" d="M205 159T228 136T251 74Q251 35 229 13T166 -10Q128 -10 106 12T83 74Q83 113 106 136T167 159Q205 159 228 136ZM539 159T562 136T586 74Q586 35 563 13T500 -10Q462 -10 440 12T417 74Q417 113 440 136T501 159Q539 159 562 136ZM873 159T896 136T920 74Q920 35 897 13T834 -10Q796 -10 774 12T751 74Q751 113 774 136T835 159Q873 159 896 136Z"  />
<glyph unicode="&#x2030;" horiz-adv-x="1089" d="M259 723T299 680T340 564Q340 492 300 449T187 405Q116 405 76 448T35 564Q35 636 75 679T187 723Q259 723 299 680ZM633 713L709 652L108 0L33 61L633 713ZM160 631T145 613T129 564Q129 533 144 516T187 498Q215 498 230 515T246 564Q246 595 231 613T187 631Q160 631 145 613ZM627 305T668 261T709 146Q709 75 668 31T557 -13Q485 -13 445 30T404 146Q404 218 444 261T557 305Q627 305 668 261ZM975 305T1015 262T1056 146Q1056 74 1016 31T904 -13Q833 -13 792 30T751 146Q751 218 792 261T904 305Q975 305 1015 262ZM530 213T515 195T499 146Q499 115 514 98T557 80Q584 80 600 97T616 146Q616 177 600 195T557 213Q530 213 515 195ZM877 213T862 195T846 146Q846 115 861 98T904 80Q931 80 947 97T963 146Q963 177 947 195T904 213Q877 213 862 195Z"  />
<glyph unicode="&#x2039;" horiz-adv-x="289" d="M244 192V59L44 224V320L244 485V352L134 272L244 192Z"  />
<glyph unicode="&#x203A;" horiz-adv-x="289" d="M43 59V192L153 272L43 352V485L243 320V224L43 59Z"  />
<glyph unicode="&#x2044;" horiz-adv-x="166" d="M271 710H365L-105 -40H-199L271 710Z"  />
<glyph unicode="&#x2070;" horiz-adv-x="358" d="M260 744T297 693T335 533Q335 425 298 374T180 322Q101 322 64 373T26 533Q26 641 63 692T180 744Q260 744 297 693ZM166 646T158 623T150 533Q150 465 158 442T180 419Q194 419 202 442T210 533Q210 600 202 623T180 646Q166 646 158 623Z"  />
<glyph unicode="&#x2074;" horiz-adv-x="368" d="M295 330H175V396H6V469L181 736H295V476H345V396H295V330ZM92 476H175V601L92 476Z"  />
<glyph unicode="&#x2075;" horiz-adv-x="362" d="M240 593T282 557T325 464Q325 400 280 361T157 322Q109 322 74 340T20 385L103 452Q117 434 130 426T158 418Q178 418 189 429T201 461Q201 481 190 492T160 503Q146 503 136 498T116 481L23 496L82 736H310V640H164L152 591Q168 593 179 593Q240 593 282 557Z"  />
<glyph unicode="&#x2076;" horiz-adv-x="363" d="M255 596T295 559T336 466Q336 397 292 360T174 323Q106 323 64 362T22 466Q22 530 53 597T141 736H273Q191 632 165 593Q177 596 191 596Q255 596 295 559ZM194 421T204 432T214 464Q214 486 204 498T175 510Q156 510 146 498T135 464Q135 443 145 432T175 421Q194 421 204 432Z"  />
<glyph unicode="&#x2077;" horiz-adv-x="358" d="M201 330H86L215 629H27V736H330V643L201 330Z"  />
<glyph unicode="&#x2078;" horiz-adv-x="357" d="M332 510T332 450Q332 393 290 358T180 322Q112 322 71 357T29 450Q29 510 85 540Q37 569 37 622Q37 674 77 709T180 744Q244 744 283 710T323 622Q323 569 275 541Q332 510 332 450ZM166 651T157 642T148 617Q148 601 157 592T180 582Q195 582 203 591T212 617Q212 633 204 642T180 651Q166 651 157 642ZM195 415T204 425T213 452Q213 471 204 481T180 492Q165 492 157 482T148 452Q148 435 156 425T180 415Q195 415 204 425Z"  />
<glyph unicode="&#x2079;" horiz-adv-x="363" d="M254 743T296 704T338 600Q338 535 306 469T217 330H86Q155 416 194 474Q183 470 168 470Q103 470 63 507T23 599Q23 669 67 706T185 743Q254 743 296 704ZM145 579T155 567T185 555Q204 555 214 567T224 601Q224 622 214 633T185 645Q166 645 156 634T145 601Q145 579 155 567Z"  />
<glyph unicode="&#x20A1;" horiz-adv-x="759" d="M677 96T611 50T461 -9L453 -64H363L371 -12Q341 -10 325 -8L317 -64H228L240 15Q144 52 91 134T38 338Q38 489 119 579T340 685L348 740H437L429 688Q445 688 475 684L483 740H573L561 660Q648 625 709 542L599 446Q568 485 538 509L483 136Q517 151 545 179T602 254L722 175Q677 96 611 50ZM368 120T390 120L454 550Q433 555 409 556L345 125Q368 120 390 120ZM193 279T211 235T262 164L319 543Q259 523 226 471T193 338Q193 279 211 235Z"  />
<glyph unicode="&#x20A8;" horiz-adv-x="1057" d="M594 390T565 337T478 255L615 0H448L330 227H230V0H75V676H346Q430 676 485 646T567 567T594 457Q594 390 565 337ZM395 361T418 386T442 454Q442 542 340 542H230V361H351Q395 361 418 386ZM899 291T933 279T994 237T1021 153Q1021 75 962 32T815 -12Q749 -12 700 8T610 71L699 163Q727 129 755 114T819 99Q883 99 883 142Q883 162 866 171T804 192L782 198Q717 215 674 247T631 344Q631 413 685 454T828 496Q887 496 933 479T1017 427L941 334Q889 385 823 385Q769 385 769 350Q769 332 785 322T841 303Q899 291 933 279Z"  />
<glyph unicode="&#x20A9;" horiz-adv-x="964" d="M951 359H868L850 291H951V210H828L773 0H596L550 210H416L370 0H193L138 210H15V291H116L98 359H15V440H77L15 676H170L221 440H347L390 647H576L619 440H746L796 676H951L889 440H951V359ZM483 515L467 440H500L483 515ZM330 359H238L253 291H316L330 359ZM449 359L434 291H532L517 359H449ZM650 291H714L729 359H636L650 291ZM286 142L300 210H271L286 142ZM682 139L697 210H667L682 139Z"  />
<glyph unicode="&#x20AA;" horiz-adv-x="785" d="M401 676T450 648T525 570T551 458V195H421V458Q421 507 400 530T334 553H178V0H47V676H334Q401 676 450 648ZM738 156T712 107T637 29T521 0H234V481H364V123H521Q566 123 587 146T608 218V676H738V218Q738 156 712 107Z"  />
<glyph unicode="&#x20AB;" horiz-adv-x="599" d="M539 0H402V42Q352 -14 267 -14Q196 -14 143 18T61 108T32 242Q32 318 61 376T143 466T267 498Q349 498 398 446V579H207V659H398V730H539V659H590V579H539V0ZM382 353T355 368T294 383Q238 383 206 345T174 242Q174 177 206 139T294 101Q328 101 355 116T398 159V325Q382 353 355 368ZM538 -141H46V-61H538V-141Z"  />
<glyph unicode="&#x20AC;" horiz-adv-x="556" d="M491 28T440 7T327 -15Q111 -15 71 217H19V297H62Q60 333 60 352V361H19V441H64Q77 559 134 624T311 690Q395 690 449 656T529 558L428 497Q409 540 381 557T317 575Q265 575 240 542T206 441H445V361H201V341Q201 311 202 297H445V217H209Q220 153 249 126T332 98Q372 98 396 112T451 160L536 83Q491 28 440 7Z"  />
<glyph unicode="&#x20AD;" horiz-adv-x="712" d="M230 0H75V289H29L75 417V676H230V431H344L460 628H648L526 431H670L618 289H478L693 46H427L230 287V0Z"  />
<glyph unicode="&#x20AE;" horiz-adv-x="613" d="M516 448V363L384 315V238L516 286V201L384 153V0H230V119L98 71V156L230 204V281L98 233V318L230 366V539H9V676H604V539H384V400L516 448Z"  />
<glyph unicode="&#x20B2;" horiz-adv-x="752" d="M717 164T643 84T446 -10V-64H348V-11Q255 -3 186 39T77 156T38 336Q38 441 77 517T186 636T348 687V740H446V686Q528 677 592 640T697 535L590 453Q561 499 526 524T446 557V372H717V323Q717 164 643 84ZM190 245T231 189T348 119V557Q272 543 231 487T190 337Q190 245 231 189ZM499 128T531 159T571 242H446V119Q499 128 531 159Z"  />
<glyph unicode="&#x20B4;" horiz-adv-x="677" d="M519 363T453 337H637V257H256Q239 240 239 212Q239 166 267 143T347 120Q394 120 431 143T505 220L622 129Q531 -14 347 -14Q269 -14 209 12T114 87T80 205Q80 233 86 257H40V337H129Q169 376 248 401H40V481H428Q435 492 435 511Q435 549 413 569T343 590Q304 590 271 574T203 521L96 624Q141 675 202 699T347 724Q461 724 526 671T592 522Q592 498 588 481H637V401H553Q519 363 453 337Z"  />
<glyph unicode="&#x20B5;" horiz-adv-x="759" d="M674 92T604 46T446 -11V-64H348V-10Q205 4 122 94T38 338Q38 492 121 581T348 686V740H446V687Q528 680 593 645T709 542L599 446Q562 493 526 518T446 552V125Q493 134 529 165T602 254L722 175Q674 92 604 46ZM193 248T234 194T348 125V551Q275 537 234 483T193 338Q193 248 234 194Z"  />
<glyph unicode="&#x20B8;" horiz-adv-x="574" d="M31 676H543V556H31V676ZM364 0H210V393H31V513H543V393H364V0Z"  />
<glyph unicode="&#x20B9;" horiz-adv-x="559" d="M402 540T417 496H505V389H423Q415 338 387 299T310 236L448 0H281L164 210H55V317H174Q214 317 239 335T277 389H55V496H278Q256 569 164 569H55V676H505V569H375Q402 540 417 496Z"  />
<glyph unicode="&#x20BA;" horiz-adv-x="594" d="M580 216T541 144T432 36T269 0H114V282L34 251V337L114 368V431L34 400V486L114 517V676H269V576L429 637V551L269 490V427L429 488V402L269 341V134Q346 134 385 178T425 321H580Q580 216 541 144Z"  />
<glyph unicode="&#x20BD;" horiz-adv-x="658" d="M467 188V87H267V0H112V87H42V188H112V251H42V360H112V676H369Q504 676 569 618T635 468Q635 371 568 311T369 251H267V188H467ZM418 360T447 388T476 469Q476 516 449 541T359 566H267V360H361Q418 360 447 388Z"  />
<glyph unicode="&#x2122;" horiz-adv-x="831" d="M339 622H240V316H144V622H22V710H339V622ZM633 332H538L457 569L460 316H363L373 710H504L586 463L667 710H798L809 316H710L714 574L633 332Z"  />
<glyph unicode="&#x2126;" horiz-adv-x="762" d="M296 594T247 549T197 418Q197 342 235 296T337 244V0H34V127H214V157Q131 185 84 253T37 418Q37 516 81 585T204 691T381 728Q481 728 558 692T680 586T725 418Q725 321 678 253T548 157V127H728V0H425V244Q488 249 527 295T566 418Q566 504 516 549T381 594Q296 594 247 549Z"  />
<glyph unicode="&#x2202;" d="M383 743T448 645T514 360Q514 180 447 83T249 -15Q143 -15 89 44T35 208Q35 285 63 345T145 439T274 474Q345 474 388 438Q382 539 350 585T258 631Q213 631 188 607T156 540L40 556Q53 639 106 691T255 743Q383 743 448 645ZM308 95T340 137T372 243Q372 298 346 330T273 363Q223 363 195 323T166 213Q166 95 254 95Q308 95 340 137Z"  />
<glyph unicode="&#x2206;" horiz-adv-x="718" d="M260 710H457L711 0H6L260 710ZM356 549L214 132H497L356 549Z"  />
<glyph unicode="&#x220F;" horiz-adv-x="712" d="M533 621H179V-170H64V730H647V-170H533V621Z"  />
<glyph unicode="&#x2211;" horiz-adv-x="695" d="M401 280L185 -61H630V-170H56V-61L276 280L56 621V730H630V621H185L401 280Z"  />
<glyph unicode="&#x2212;" horiz-adv-x="596" d="M34 311H561V200H34V311Z"  />
<glyph unicode="&#x221A;" horiz-adv-x="602" d="M506 621L326 -214H241L-1 238L89 279L258 -39L416 730H598V621H506Z"  />
<glyph unicode="&#x221E;" horiz-adv-x="965" d="M825 475T882 417T940 255Q940 150 883 93T725 35Q655 35 597 69T482 166Q426 104 368 70T240 35Q140 35 82 92T24 255Q24 359 82 417T240 475Q310 475 368 441T482 344Q539 406 597 440T725 475Q825 475 882 417ZM283 149T321 174T407 255Q359 310 321 335T240 361Q144 361 144 255Q144 149 240 149Q283 149 321 174ZM821 149T821 255Q821 361 725 361Q682 361 644 336T557 255Q606 200 644 175T725 149Q821 149 821 255Z"  />
<glyph unicode="&#x222B;" horiz-adv-x="477" d="M369 744T398 735T452 709L412 607Q386 625 363 625Q339 625 324 608T309 558V-77Q309 -136 285 -176T222 -235T138 -255Q108 -255 78 -246T24 -220L64 -118Q92 -136 114 -136Q138 -136 153 -119T168 -69V566Q168 625 192 665T255 724T339 744Q369 744 398 735Z"  />
<glyph unicode="&#x2248;" horiz-adv-x="596" d="M228 448T251 440T307 416Q339 401 356 395T393 388Q450 388 460 446H559Q556 401 536 361T480 297T392 272Q368 272 345 280T289 304Q257 319 240 325T203 332Q146 332 136 274H37Q40 319 60 359T116 423T203 448Q228 448 251 440ZM228 238T251 230T307 206Q339 191 357 185T393 178Q450 178 460 236H559Q556 191 536 151T480 87T392 62Q368 62 345 70T289 94Q257 109 240 115T203 122Q146 122 136 64H37Q40 109 60 149T116 213T203 238Q228 238 251 230Z"  />
<glyph unicode="&#x2260;" horiz-adv-x="596" d="M562 203V92H278L239 0L159 34L183 92H36V203H230L274 307H36V418H321L359 509L439 475L415 418H562V307H368L324 203H562Z"  />
<glyph unicode="&#x2264;" horiz-adv-x="579" d="M543 251V132L33 278V399L543 545V427L218 339L543 251ZM543 0H33V111H543V0Z"  />
<glyph unicode="&#x2265;" horiz-adv-x="579" d="M34 132V251L359 339L34 427V545L544 399V278L34 132ZM544 0H34V111H544V0Z"  />
<glyph unicode="&#xFB01;" horiz-adv-x="603" d="M307 744T357 709L317 607Q289 625 267 625Q243 625 228 608T213 558V485H325V379H213V0H72V379H20V485H72V566Q72 625 96 665T159 724T243 744Q307 744 357 709ZM506 740T528 719T551 659Q551 620 528 600T470 580Q435 580 413 600T391 660Q391 699 413 719T471 740Q506 740 528 719ZM401 485H542V0H401V485Z"  />
<glyph unicode="&#xFB02;" horiz-adv-x="603" d="M307 744T357 709L317 607Q289 625 267 625Q243 625 228 608T213 558V485H325V379H213V0H72V379H20V485H72V566Q72 625 96 665T159 724T243 744Q307 744 357 709ZM401 730H542V0H401V730Z"  />
<glyph unicode="&#xFDFC;" horiz-adv-x="985" d="M397 -13T350 -73T207 -134Q115 -134 70 -80T25 55Q25 96 36 137T69 213L175 167Q145 105 145 57Q145 -10 207 -10Q243 -10 259 13T276 83V676H397V96Q397 -13 350 -73ZM559 245T569 234T598 222Q645 222 645 279Q645 320 624 357L731 402Q766 344 766 277Q766 196 718 147T591 98Q519 98 479 143T438 271V676H559V271Q559 245 569 234ZM919 279T939 224T960 109Q960 -6 882 -92T658 -224L617 -112Q733 -73 786 -19T839 112Q839 149 826 181T781 254L883 324Q919 279 939 224ZM525 80T544 63T564 13Q564 -20 545 -36T498 -53Q470 -53 451 -37T432 13Q432 46 450 63T497 80Q525 80 544 63ZM680 80T699 63T719 13Q719 -20 700 -36T653 -53Q625 -53 606 -37T587 13Q587 46 605 63T652 80Q680 80 699 63Z"  />


</font>
</defs>
<text x="40" y="40" font-family="RN House Sans W01 Bold" font-size="30" fill="#933" >ABCDEFGHIJKLMNOPQRSTUVWXYZ abcdefghijklmnopqrstuvwxyz AÁÀÂÄÅÃÆ CÇ DÐ EÉÈÊË I Í Ì Î Ï NÑ</text>
<text x="40" y="80" font-family="RN House Sans W01 Bold" font-size="30" fill="#933" >OÓÒÔÖÕØŒ SŠ UÚÙÛÜ YÝŸ ZŽ Þ aáàâäåãæ cç dð eéèêë i ı í ì î ï nñ oóòôöõøœ sšß uúùûü yýÿ zž</text>
<text x="40" y="120" font-family="RN House Sans W01 Bold" font-size="30" fill="#933" >þ 1234567890 ½ ¼ ¾ % ‰ $¢£¥ƒ€¤ † ‡ § ¶ # ^~µ +×± &lt; = &gt; ÷¬ !¡?¿ &quot; &amp; &apos; * ° . , : ; () [ \ ] {} / |</text>
<text x="40" y="160" font-family="RN House Sans W01 Bold" font-size="30" fill="#933" >¦ _ ‚ „ … ‹› «» ‘ ’ “ ” • ­ - – — @ © ® ™ ªº ¹²³ ´ ` ˆ ˜ ¨ ¯ · ¸</text>
</svg>
