<?xml version="1.0" encoding="UTF-8"?>
<svg width="22px" height="22px" viewBox="0 0 22 22" version="1.1" xmlns="http://www.w3.org/2000/svg" xmlns:xlink="http://www.w3.org/1999/xlink">
    <!-- Generator: Sketch 52.3 (67297) - http://www.bohemiancoding.com/sketch -->
    <title>Icons/coins</title>
    <desc>Created with Sketch.</desc>
    <defs>
        <filter x="-2.4%" y="-20.4%" width="104.8%" height="138.8%" filterUnits="objectBoundingBox" id="filter-1">
            <feOffset dx="0" dy="-2" in="SourceAlpha" result="shadowOffsetOuter1"></feOffset>
            <feGaussianBlur stdDeviation="2" in="shadowOffsetOuter1" result="shadowBlurOuter1"></feGaussianBlur>
            <feColorMatrix values="0 0 0 0 0   0 0 0 0 0   0 0 0 0 0  0 0 0 0.1 0" type="matrix" in="shadowBlurOuter1" result="shadowMatrixOuter1"></feColorMatrix>
            <feMerge>
                <feMergeNode in="shadowMatrixOuter1"></feMergeNode>
                <feMergeNode in="SourceGraphic"></feMergeNode>
            </feMerge>
        </filter>
        <rect id="path-2" x="0" y="0" width="375" height="49"></rect>
        <filter x="-0.1%" y="-1.5%" width="100.1%" height="102.0%" filterUnits="objectBoundingBox" id="filter-3">
            <feOffset dx="0" dy="-0.5" in="SourceAlpha" result="shadowOffsetOuter1"></feOffset>
            <feColorMatrix values="0 0 0 0 0   0 0 0 0 0   0 0 0 0 0  0 0 0 0.3 0" type="matrix" in="shadowOffsetOuter1"></feColorMatrix>
        </filter>
        <path d="M0.122089552,8.32372131 C0.670746269,9.50547541 3.00651741,10.3933279 5.80502488,10.3933279 C8.60353234,10.3933279 10.9393035,9.50542623 11.4879602,8.32372131 C11.5678607,8.49580328 11.6100498,8.67403279 11.6100498,8.85678689 L11.6100498,9.42122951 C11.6100498,10.8587213 9.01104478,12.0239508 5.80502488,12.0239508 C2.59905473,12.0239508 0,10.8587213 0,9.42122951 L0,8.85678689 C0,8.67403279 0.0421890547,8.49580328 0.122089552,8.32372131 Z M0.122089552,5.32372131 C0.670746269,6.50547541 3.00651741,7.39332787 5.80502488,7.39332787 C8.60353234,7.39332787 10.9393035,6.50542623 11.4879602,5.32372131 C11.5678607,5.49580328 11.6100498,5.67403279 11.6100498,5.85678689 L11.6100498,6.42122951 C11.6100498,7.85872131 9.01104478,9.02395082 5.80502488,9.02395082 C2.59905473,9.02395082 0,7.85872131 0,6.42122951 L0,5.85678689 C0,5.67403279 0.0421890547,5.49580328 0.122089552,5.32372131 Z M19.9801045,7.57514754 C19.9801045,9.01254098 17.3810995,10.1778689 14.1750796,10.1778689 C13.6135871,10.1778689 12.9124925,10.107 12.5572687,10.0752787 C13.0744328,6.75895082 12.3406517,4.54809836 12.3406517,4.54809836 C12.8541841,4.48140984 13.6135871,4.40803279 14.1750796,4.40803279 C17.3810995,4.40803279 19.9801045,5.5732623 19.9801045,7.01070492 L19.9801045,7.57514754 Z M12.5573134,15.3895082 L12.5573134,14.8251148 L12.5573134,14.6983279 C13.070995,14.7650164 13.6134826,14.8013607 14.1751244,14.8013607 C16.9736318,14.8013607 19.309403,13.913459 19.8580597,12.7317541 C19.9379602,12.9038361 19.9801493,13.0820656 19.9801493,13.2647705 L19.9801493,13.8292131 C19.9801493,15.2667049 17.3811443,16.4319344 14.1751244,16.4319344 C13.5339801,16.4319344 12.9173134,16.3852131 12.3406468,16.2991475 C12.4835821,16.0101148 12.5573134,15.7052951 12.5573134,15.3895082 Z M12.5573134,12.3895082 L12.5573134,11.8251148 L12.5573134,11.6983279 C13.070995,11.7650164 13.6134826,11.8013607 14.1751244,11.8013607 C16.9736318,11.8013607 19.309403,10.913459 19.8580597,9.7317541 C19.9379602,9.90383607 19.9801493,10.0820656 19.9801493,10.2647705 L19.9801493,10.8292131 C19.9801493,12.2667049 17.3811443,13.4319344 14.1751244,13.4319344 C13.5339801,13.4319344 12.9173134,13.3852131 12.3406468,13.2991475 C12.4835821,13.0101148 12.5573134,12.7052951 12.5573134,12.3895082 Z M0.122089552,11.3863279 C0.670746269,12.5679836 3.00651741,13.4559344 5.80502488,13.4559344 C8.60353234,13.4559344 10.9393035,12.5680328 11.4879602,11.3863279 C11.5678607,11.558459 11.6100498,11.7366393 11.6100498,11.9193443 L11.6100498,12.4838361 C11.6100498,13.9212787 9.01104478,15.0865082 5.80502488,15.0865082 C2.59905473,15.0865082 0,13.9212787 0,12.4838361 L0,11.9193443 C0,11.7366393 0.0421890547,11.5583607 0.122089552,11.3863279 Z M0.122089552,14.2920492 C0.670746269,15.4737541 3.00651741,16.3616557 5.80502488,16.3616557 C8.60353234,16.3616557 10.9393035,15.4738033 11.4879602,14.2920984 C11.5678607,14.4642295 11.6100498,14.6425082 11.6100498,14.8251148 L11.6100498,15.3895574 C11.6100498,16.827 9.01104478,17.9922295 5.80502488,17.9922295 C2.59905473,17.9922295 0,16.827 0,15.3895574 L0,14.8250656 C0,14.6423607 0.0421890547,14.464082 0.122089552,14.2920492 Z M0,2.60267213 C0,1.16522951 2.59905473,0 5.80502488,0 C9.01104478,0 11.6100498,1.16522951 11.6100498,2.60267213 L11.6100498,3.16711475 C11.6100498,4.60455738 9.01104478,5.76978689 5.80502488,5.76978689 C2.59905473,5.76978689 0,4.60455738 0,3.16711475 L0,2.60267213 Z" id="path-4"></path>
    </defs>
    <g id="BGT-2.0" stroke="none" stroke-width="1" fill="none" fill-rule="evenodd">
        <g id="14664-1" transform="translate(-252.000000, -622.000000)">
            <rect fill="#FFFFFF" x="0" y="0" width="375" height="667"></rect>
            <g id="Navigation/Bar" transform="translate(0.000000, 618.000000)">
                <g id="Nav-bar-Timline" filter="url(#filter-1)">
                    <g id="Background">
                        <use fill="black" fill-opacity="1" filter="url(#filter-3)" xlink:href="#path-2"></use>
                        <use fill="#F5F5F5" fill-rule="evenodd" xlink:href="#path-2"></use>
                    </g>
                    <g id="Icons/coins" transform="translate(252.000000, 4.000000)">
                        <g id="icon_coins" transform="translate(1.000000, 2.000000)">
                            <mask id="mask-5" fill="white">
                                <use xlink:href="#path-4"></use>
                            </mask>
                            <use id="Mask" fill="#000000" xlink:href="#path-4"></use>
                            <g id="Color/Name/Purple" mask="url(#mask-5)" fill="#42145F">
                                <g transform="translate(-1.000000, 0.000000)" id="Fill-4">
                                    <polygon points="0 22 22 22 22 0 0 0"></polygon>
                                </g>
                            </g>
                        </g>
                    </g>
                </g>
            </g>
        </g>
    </g>
</svg>