<?xml version="1.0" encoding="UTF-8"?>
<svg width="22px" height="22px" viewBox="0 0 22 22" version="1.1" xmlns="http://www.w3.org/2000/svg" xmlns:xlink="http://www.w3.org/1999/xlink">
    <!-- Generator: Sketch 52.3 (67297) - http://www.bohemiancoding.com/sketch -->
    <title>Icons/gear</title>
    <desc>Created with Sketch.</desc>
    <defs>
        <filter x="-2.4%" y="-20.4%" width="104.8%" height="138.8%" filterUnits="objectBoundingBox" id="filter-1">
            <feOffset dx="0" dy="-2" in="SourceAlpha" result="shadowOffsetOuter1"></feOffset>
            <feGaussianBlur stdDeviation="2" in="shadowOffsetOuter1" result="shadowBlurOuter1"></feGaussianBlur>
            <feColorMatrix values="0 0 0 0 0   0 0 0 0 0   0 0 0 0 0  0 0 0 0.1 0" type="matrix" in="shadowBlurOuter1" result="shadowMatrixOuter1"></feColorMatrix>
            <feMerge>
                <feMergeNode in="shadowMatrixOuter1"></feMergeNode>
                <feMergeNode in="SourceGraphic"></feMergeNode>
            </feMerge>
        </filter>
        <rect id="path-2" x="0" y="0" width="375" height="49"></rect>
        <filter x="-0.1%" y="-1.5%" width="100.1%" height="102.0%" filterUnits="objectBoundingBox" id="filter-3">
            <feOffset dx="0" dy="-0.5" in="SourceAlpha" result="shadowOffsetOuter1"></feOffset>
            <feColorMatrix values="0 0 0 0 0   0 0 0 0 0   0 0 0 0 0  0 0 0 0.3 0" type="matrix" in="shadowOffsetOuter1"></feColorMatrix>
        </filter>
        <path d="M15.8001429,9 C15.8001429,8.142 16.5334286,7.30328571 18,6.48385714 L17.1437143,4.41128571 C15.528,4.87157143 14.4154286,4.79742857 13.806,4.18885714 C13.2,3.582 13.1271429,2.47114286 13.5874286,0.856285714 L11.5161429,0 C10.6975714,1.46485714 9.85885714,2.19728571 9,2.19728571 C8.14114286,2.19728571 7.30328571,1.46485714 6.48642857,0 L4.41257143,0.857571429 C4.87285714,2.47242857 4.79914286,3.58328571 4.19142857,4.19014286 C3.58371429,4.79785714 2.472,4.872 0.856285714,4.41257143 L0,6.48385714 C1.46657143,7.30328571 2.199,8.142 2.19728571,9 C2.19728571,9.85885714 1.46485714,10.6967143 0,11.5135714 L0.853714286,13.5848571 C2.47114286,13.1262857 3.58285714,13.2008571 4.18885714,13.8085714 C4.79657143,14.4162857 4.87114286,15.528 4.41257143,17.1437143 L6.48642857,18 C7.30328571,16.536 8.14114286,15.804 9,15.804 C9.85885714,15.804 10.6975714,16.536 11.5161429,18 L13.5874286,17.1437143 C13.1271429,15.528 13.2008571,14.4162857 13.8085714,13.8085714 C14.4162857,13.2008571 15.528,13.1267143 17.1437143,13.5861429 L18,11.5135714 C16.5334286,10.6967143 15.8001429,9.85885714 15.8001429,9 Z M9.00120992,13.0034958 C6.79189353,13.0034958 5,11.2125714 5,9.0017479 C5,6.79092437 6.79189353,5 9.00120992,5 C11.2105263,5 13,6.79213445 13,9.0017479 C13,11.2113613 11.2105263,13.0034958 9.00120992,13.0034958 Z" id="path-4"></path>
    </defs>
    <g id="BGT-2.0" stroke="none" stroke-width="1" fill="none" fill-rule="evenodd">
        <g id="14664-1" transform="translate(-327.000000, -622.000000)">
            <rect fill="#FFFFFF" x="0" y="0" width="375" height="667"></rect>
            <g id="Navigation/Bar" transform="translate(0.000000, 618.000000)">
                <g id="Nav-bar-Timline" filter="url(#filter-1)">
                    <g id="Background">
                        <use fill="black" fill-opacity="1" filter="url(#filter-3)" xlink:href="#path-2"></use>
                        <use fill="#F5F5F5" fill-rule="evenodd" xlink:href="#path-2"></use>
                    </g>
                    <g id="Icons/gear" transform="translate(327.000000, 4.000000)">
                        <g id="icon_gear" transform="translate(2.000000, 2.000000)">
                            <mask id="mask-5" fill="white">
                                <use xlink:href="#path-4"></use>
                            </mask>
                            <use id="Mask" fill="#FFFFFF" fill-rule="nonzero" xlink:href="#path-4"></use>
                            <g id="Color/Name/Grey" mask="url(#mask-5)" fill="#C9C6C6">
                                <g transform="translate(-2.000000, -2.000000)" id="Fill-54">
                                    <polygon points="2.2737e-12 22 22 22 22 0 2.2737e-12 0"></polygon>
                                </g>
                            </g>
                        </g>
                    </g>
                </g>
            </g>
        </g>
    </g>
</svg>