{
    "transactions": [
        {
            "balanceAmount": -33591.6,
            "transactionAmount": -5,
            "currency": "GBP",
            "transactionTimestamp": "2018-10-01T00:00:00.000",
            "transactionReference": "8550",
            "transactionStatus": "booked",
            "transactionId": "b934604c-2be7-4edb-b063-2fb41d2d5f03-25576080",
            "merchantName": "Expense "
        },
        {
            "balanceAmount": -33663.94,
            "transactionAmount": -45,
            "currency": "GBP",
            "transactionTimestamp": "2018-10-01T00:00:00.000",
            "transactionReference": "5427",
            "transactionStatus": "booked",
            "transactionId": "b934604c-2be7-4edb-b063-2fb41d2d5f03-25576189",
            "merchantName": "Car Insurance 28155"
        },
        {
            "balanceAmount": -34342.93,
            "transactionAmount": -15,
            "currency": "GBP",
            "transactionTimestamp": "2018-10-01T00:00:00.000",
            "transactionReference": "2339",
            "transactionStatus": "booked",
            "transactionId": "b934604c-2be7-4edb-b063-2fb41d2d5f03-25576160",
            "merchantName": "The Week 34637un353 "
        },
        {
            "balanceAmount": -33810.44,
            "transactionAmount": -96.5,
            "currency": "GBP",
            "transactionTimestamp": "2018-10-01T00:00:00.000",
            "transactionReference": "2518",
            "transactionStatus": "booked",
            "transactionId": "b934604c-2be7-4edb-b063-2fb41d2d5f03-25576125",
            "merchantName": "Private Medical Insurance "
        },
        {
            "balanceAmount": -30630.93,
            "transactionAmount": -250,
            "currency": "GBP",
            "transactionTimestamp": "2018-10-01T00:00:00.000",
            "transactionReference": "3348",
            "transactionStatus": "booked",
            "transactionId": "b934604c-2be7-4edb-b063-2fb41d2d5f03-25576054",
            "merchantName": "Monthly Isa Payment "
        },
        {
            "balanceAmount": -34660.44,
            "transactionAmount": -850,
            "currency": "GBP",
            "transactionTimestamp": "2018-10-01T00:00:00.000",
            "transactionReference": "3092",
            "transactionStatus": "booked",
            "transactionId": "b934604c-2be7-4edb-b063-2fb41d2d5f03-25576141",
            "merchantName": "Mortgage Ref: Otiu/sfnw12 "
        },
        {
            "balanceAmount": -34722.93,
            "transactionAmount": -350,
            "currency": "GBP",
            "transactionTimestamp": "2018-10-01T00:00:00.000",
            "transactionReference": "7351",
            "transactionStatus": "booked",
            "transactionId": "b934604c-2be7-4edb-b063-2fb41d2d5f03-25576174",
            "merchantName": "London Kings Cross "
        },
        {
            "balanceAmount": -31710.93,
            "transactionAmount": 12,
            "currency": "GBP",
            "transactionTimestamp": "2018-10-01T00:00:00.000",
            "transactionReference": "3453",
            "transactionStatus": "booked",
            "transactionId": "b934604c-2be7-4edb-b063-2fb41d2d5f03-25576159",
            "merchantName": "Your Dividends "
        },
        {
            "balanceAmount": -34310.44,
            "transactionAmount": -20,
            "currency": "GBP",
            "transactionTimestamp": "2018-10-01T00:00:00.000",
            "transactionReference": "8225",
            "transactionStatus": "booked",
            "transactionId": "b934604c-2be7-4edb-b063-2fb41d2d5f03-25576059",
            "merchantName": "6.49e+13"
        },
        {
            "balanceAmount": -34362.93,
            "transactionAmount": -5,
            "currency": "GBP",
            "transactionTimestamp": "2018-10-01T00:00:00.000",
            "transactionReference": "6399",
            "transactionStatus": "booked",
            "transactionId": "b934604c-2be7-4edb-b063-2fb41d2d5f03-25576123",
            "merchantName": "Apple Cloud 53463790854392 "
        },
        {
            "balanceAmount": -30380.93,
            "transactionAmount": 10,
            "currency": "GBP",
            "transactionTimestamp": "2018-10-01T00:00:00.000",
            "transactionReference": "7001",
            "transactionStatus": "booked",
            "transactionId": "b934604c-2be7-4edb-b063-2fb41d2d5f03-25576098",
            "merchantName": "Rewards Cash "
        },
        {
            "balanceAmount": -30390.93,
            "transactionAmount": 1200,
            "currency": "GBP",
            "transactionTimestamp": "2018-10-01T00:00:00.000",
            "transactionReference": "3263",
            "transactionStatus": "booked",
            "transactionId": "b934604c-2be7-4edb-b063-2fb41d2d5f03-25576175",
            "merchantName": "1 The Highstreet Rent "
        },
        {
            "balanceAmount": -34110.44,
            "transactionAmount": -250,
            "currency": "GBP",
            "transactionTimestamp": "2018-10-01T00:00:00.000",
            "transactionReference": "4272",
            "transactionStatus": "booked",
            "transactionId": "b934604c-2be7-4edb-b063-2fb41d2d5f03-25576179",
            "merchantName": "Zopa Ref: 4590zpa345 "
        },
        {
            "balanceAmount": -31590.93,
            "transactionAmount": 120,
            "currency": "GBP",
            "transactionTimestamp": "2018-10-01T00:00:00.000",
            "transactionReference": "8915",
            "transactionStatus": "booked",
            "transactionId": "b934604c-2be7-4edb-b063-2fb41d2d5f03-25576116",
            "merchantName": "Free Lancing Network "
        },
        {
            "balanceAmount": -34320.43,
            "transactionAmount": -9.99,
            "currency": "GBP",
            "transactionTimestamp": "2018-10-01T00:00:00.000",
            "transactionReference": "3556",
            "transactionStatus": "booked",
            "transactionId": "b934604c-2be7-4edb-b063-2fb41d2d5f03-25576043",
            "merchantName": "Spotify 592086462 "
        },
        {
            "balanceAmount": -31080.93,
            "transactionAmount": -450,
            "currency": "GBP",
            "transactionTimestamp": "2018-10-01T00:00:00.000",
            "transactionReference": "5333",
            "transactionStatus": "booked",
            "transactionId": "b934604c-2be7-4edb-b063-2fb41d2d5f03-25576105",
            "merchantName": "Statement Payment 11612"
        },
        {
            "balanceAmount": -33713.94,
            "transactionAmount": -50,
            "currency": "GBP",
            "transactionTimestamp": "2018-10-01T00:00:00.000",
            "transactionReference": "7447",
            "transactionStatus": "booked",
            "transactionId": "b934604c-2be7-4edb-b063-2fb41d2d5f03-25576129",
            "merchantName": "Home Insurance "
        },
        {
            "balanceAmount": -34290.44,
            "transactionAmount": -50,
            "currency": "GBP",
            "transactionTimestamp": "2018-10-01T00:00:00.000",
            "transactionReference": "8683",
            "transactionStatus": "booked",
            "transactionId": "b934604c-2be7-4edb-b063-2fb41d2d5f03-25576102",
            "merchantName": "649306djin5465 "
        },
        {
            "balanceAmount": -33603.59,
            "transactionAmount": -11.99,
            "currency": "GBP",
            "transactionTimestamp": "2018-10-01T00:00:00.000",
            "transactionReference": "6704",
            "transactionStatus": "booked",
            "transactionId": "b934604c-2be7-4edb-b063-2fb41d2d5f03-25576068",
            "merchantName": "Travel Insurance Ref: 8416"
        },
        {
            "balanceAmount": -33860.44,
            "transactionAmount": 800,
            "currency": "GBP",
            "transactionTimestamp": "2018-10-01T00:00:00.000",
            "transactionReference": "5479",
            "transactionStatus": "booked",
            "transactionId": "b934604c-2be7-4edb-b063-2fb41d2d5f03-25576033",
            "merchantName": "Rent For 29 Meadow Cottage "
        },
        {
            "balanceAmount": -31580.93,
            "transactionAmount": -500,
            "currency": "GBP",
            "transactionTimestamp": "2018-10-01T00:00:00.000",
            "transactionReference": "5372",
            "transactionStatus": "booked",
            "transactionId": "b934604c-2be7-4edb-b063-2fb41d2d5f03-25576144",
            "merchantName": "Pension Ref: Av36973072 "
        },
        {
            "balanceAmount": -33618.94,
            "transactionAmount": -15.35,
            "currency": "GBP",
            "transactionTimestamp": "2018-10-01T00:00:00.000",
            "transactionReference": "4217",
            "transactionStatus": "booked",
            "transactionId": "b934604c-2be7-4edb-b063-2fb41d2d5f03-25576060",
            "merchantName": "Life Insurance "
        },
        {
            "balanceAmount": -34365.43,
            "transactionAmount": -2.5,
            "currency": "GBP",
            "transactionTimestamp": "2018-10-01T00:00:00.000",
            "transactionReference": "8861",
            "transactionStatus": "booked",
            "transactionId": "b934604c-2be7-4edb-b063-2fb41d2d5f03-25576103",
            "merchantName": "Google Business Services "
        },
        {
            "balanceAmount": -34357.93,
            "transactionAmount": -15,
            "currency": "GBP",
            "transactionTimestamp": "2018-10-01T00:00:00.000",
            "transactionReference": "4045",
            "transactionStatus": "booked",
            "transactionId": "b934604c-2be7-4edb-b063-2fb41d2d5f03-25576188",
            "merchantName": "The Economist 498037iong "
        },
        {
            "balanceAmount": -34327.93,
            "transactionAmount": -7.5,
            "currency": "GBP",
            "transactionTimestamp": "2018-10-01T00:00:00.000",
            "transactionReference": "8290",
            "transactionStatus": "booked",
            "transactionId": "b934604c-2be7-4edb-b063-2fb41d2d5f03-25576171",
            "merchantName": "Amazon Prime Ghe968732762 "
        },
        {
            "balanceAmount": -31722.93,
            "transactionAmount": 3000,
            "currency": "GBP",
            "transactionTimestamp": "2018-10-01T00:00:00.000",
            "transactionReference": "5119",
            "transactionStatus": "booked",
            "transactionId": "b934604c-2be7-4edb-b063-2fb41d2d5f03-25576165",
            "merchantName": "Your Employer "
        },
        {
            "balanceAmount": -34372.93,
            "transactionAmount": -7.5,
            "currency": "GBP",
            "transactionTimestamp": "2018-10-01T00:00:00.000",
            "transactionReference": "9940",
            "transactionStatus": "booked",
            "transactionId": "b934604c-2be7-4edb-b063-2fb41d2d5f03-25576131",
            "merchantName": "Netflix Nt346980277 "
        },
        {
            "balanceAmount": -34240.44,
            "transactionAmount": -130,
            "currency": "GBP",
            "transactionTimestamp": "2018-10-01T00:00:00.000",
            "transactionReference": "4572",
            "transactionStatus": "booked",
            "transactionId": "b934604c-2be7-4edb-b063-2fb41d2d5f03-25576143",
            "merchantName": "549308lkvn "
        },
        {
            "balanceAmount": -33586.6,
            "transactionAmount": -15.35,
            "currency": "GBP",
            "transactionTimestamp": "2018-09-27T00:00:00.000",
            "transactionReference": "4217",
            "transactionStatus": "booked",
            "transactionId": "b934604c-2be7-4edb-b063-2fb41d2d5f03-25576136",
            "merchantName": "Life Insurance "
        },
        {
            "balanceAmount": -33571.25,
            "transactionAmount": -130,
            "currency": "GBP",
            "transactionTimestamp": "2018-09-25T00:00:00.000",
            "transactionReference": "4572",
            "transactionStatus": "booked",
            "transactionId": "b934604c-2be7-4edb-b063-2fb41d2d5f03-25576061",
            "merchantName": "549308lkvn "
        },
        {
            "balanceAmount": -33441.25,
            "transactionAmount": -50,
            "currency": "GBP",
            "transactionTimestamp": "2018-09-24T00:00:00.000",
            "transactionReference": "6305",
            "transactionStatus": "booked",
            "transactionId": "b934604c-2be7-4edb-b063-2fb41d2d5f03-25576164",
            "merchantName": "B&q 1304           Wandsworth "
        },
        {
            "balanceAmount": -33391.25,
            "transactionAmount": -1,
            "currency": "GBP",
            "transactionTimestamp": "2018-09-21T00:00:00.000",
            "transactionReference": "5633",
            "transactionStatus": "booked",
            "transactionId": "b934604c-2be7-4edb-b063-2fb41d2d5f03-25576042",
            "merchantName": "Oyster Payment 17438"
        },
        {
            "balanceAmount": -33390.25,
            "transactionAmount": -15,
            "currency": "GBP",
            "transactionTimestamp": "2018-09-19T00:00:00.000",
            "transactionReference": "2339",
            "transactionStatus": "booked",
            "transactionId": "b934604c-2be7-4edb-b063-2fb41d2d5f03-25576124",
            "merchantName": "The Week 34637un353 "
        },
        {
            "balanceAmount": -33375.25,
            "transactionAmount": -1,
            "currency": "GBP",
            "transactionTimestamp": "2018-09-17T00:00:00.000",
            "transactionReference": "7618",
            "transactionStatus": "booked",
            "transactionId": "b934604c-2be7-4edb-b063-2fb41d2d5f03-25576217",
            "merchantName": "Oyster Payment 48412"
        },
        {
            "balanceAmount": -33374.25,
            "transactionAmount": -7.5,
            "currency": "GBP",
            "transactionTimestamp": "2018-09-17T00:00:00.000",
            "transactionReference": "8290",
            "transactionStatus": "booked",
            "transactionId": "b934604c-2be7-4edb-b063-2fb41d2d5f03-25576411",
            "merchantName": "Amazon Prime Ghe968732762 "
        },
        {
            "balanceAmount": -33366.75,
            "transactionAmount": -1,
            "currency": "GBP",
            "transactionTimestamp": "2018-09-14T00:00:00.000",
            "transactionReference": "9746",
            "transactionStatus": "booked",
            "transactionId": "b934604c-2be7-4edb-b063-2fb41d2d5f03-25576510",
            "merchantName": "Oyster Payment 32014"
        },
        {
            "balanceAmount": -33365.75,
            "transactionAmount": -5,
            "currency": "GBP",
            "transactionTimestamp": "2018-09-14T00:00:00.000",
            "transactionReference": "8239",
            "transactionStatus": "booked",
            "transactionId": "b934604c-2be7-4edb-b063-2fb41d2d5f03-25576277",
            "merchantName": "The Shed "
        },
        {
            "balanceAmount": -33360.75,
            "transactionAmount": -1,
            "currency": "GBP",
            "transactionTimestamp": "2018-09-12T00:00:00.000",
            "transactionReference": "9540",
            "transactionStatus": "booked",
            "transactionId": "b934604c-2be7-4edb-b063-2fb41d2d5f03-25576621",
            "merchantName": "Oyster Payment 48372"
        },
        {
            "balanceAmount": -33359.75,
            "transactionAmount": -1,
            "currency": "GBP",
            "transactionTimestamp": "2018-09-11T00:00:00.000",
            "transactionReference": "6211",
            "transactionStatus": "booked",
            "transactionId": "b934604c-2be7-4edb-b063-2fb41d2d5f03-25576557",
            "merchantName": "Oyster Payment 11039"
        },
        {
            "balanceAmount": -33358.75,
            "transactionAmount": -5,
            "currency": "GBP",
            "transactionTimestamp": "2018-09-09T00:00:00.000",
            "transactionReference": "8801",
            "transactionStatus": "booked",
            "transactionId": "b934604c-2be7-4edb-b063-2fb41d2d5f03-25576446",
            "merchantName": "Tesco Stores    2345 "
        },
        {
            "balanceAmount": -33353.75,
            "transactionAmount": -10,
            "currency": "GBP",
            "transactionTimestamp": "2018-09-07T00:00:00.000",
            "transactionReference": "2692",
            "transactionStatus": "booked",
            "transactionId": "b934604c-2be7-4edb-b063-2fb41d2d5f03-25576448",
            "merchantName": "Cash Withdrawl Barnet 1001"
        },
        {
            "balanceAmount": -33343.75,
            "transactionAmount": -1,
            "currency": "GBP",
            "transactionTimestamp": "2018-09-06T00:00:00.000",
            "transactionReference": "2248",
            "transactionStatus": "booked",
            "transactionId": "b934604c-2be7-4edb-b063-2fb41d2d5f03-25576279",
            "merchantName": "Oyster Payment 34165"
        },
        {
            "balanceAmount": -33342.75,
            "transactionAmount": -5,
            "currency": "GBP",
            "transactionTimestamp": "2018-09-05T00:00:00.000",
            "transactionReference": "7267",
            "transactionStatus": "booked",
            "transactionId": "b934604c-2be7-4edb-b063-2fb41d2d5f03-25576664",
            "merchantName": "Chicken Cottage "
        },
        {
            "balanceAmount": -33337.75,
            "transactionAmount": -5,
            "currency": "GBP",
            "transactionTimestamp": "2018-09-02T00:00:00.000",
            "transactionReference": "4682",
            "transactionStatus": "booked",
            "transactionId": "b934604c-2be7-4edb-b063-2fb41d2d5f03-25576642",
            "merchantName": "Tesco Stores    2345 "
        },
        {
            "balanceAmount": 9654.59,
            "transactionAmount": -11.99,
            "currency": "GBP",
            "transactionTimestamp": "2018-09-01T00:00:00.000",
            "transactionReference": "6704",
            "transactionStatus": "booked",
            "transactionId": "b934604c-2be7-4edb-b063-2fb41d2d5f03-25576612",
            "merchantName": "Travel Insurance Ref: 8416"
        },
        {
            "balanceAmount": 9017.74,
            "transactionAmount": -130,
            "currency": "GBP",
            "transactionTimestamp": "2018-09-01T00:00:00.000",
            "transactionReference": "4572",
            "transactionStatus": "booked",
            "transactionId": "b934604c-2be7-4edb-b063-2fb41d2d5f03-25576667",
            "merchantName": "549308lkvn "
        },
        {
            "balanceAmount": 8885.25,
            "transactionAmount": -7.5,
            "currency": "GBP",
            "transactionTimestamp": "2018-09-01T00:00:00.000",
            "transactionReference": "9940",
            "transactionStatus": "booked",
            "transactionId": "b934604c-2be7-4edb-b063-2fb41d2d5f03-25576520",
            "merchantName": "Netflix Nt346980277 "
        },
        {
            "balanceAmount": 8967.74,
            "transactionAmount": -50,
            "currency": "GBP",
            "transactionTimestamp": "2018-09-01T00:00:00.000",
            "transactionReference": "8683",
            "transactionStatus": "booked",
            "transactionId": "b934604c-2be7-4edb-b063-2fb41d2d5f03-25576467",
            "merchantName": "649306djin5465 "
        },
        {
            "balanceAmount": 8930.25,
            "transactionAmount": -7.5,
            "currency": "GBP",
            "transactionTimestamp": "2018-09-01T00:00:00.000",
            "transactionReference": "8290",
            "transactionStatus": "booked",
            "transactionId": "b934604c-2be7-4edb-b063-2fb41d2d5f03-25576611",
            "merchantName": "Amazon Prime Ghe968732762 "
        },
        {
            "balanceAmount": 8947.74,
            "transactionAmount": -20,
            "currency": "GBP",
            "transactionTimestamp": "2018-09-01T00:00:00.000",
            "transactionReference": "8225",
            "transactionStatus": "booked",
            "transactionId": "b934604c-2be7-4edb-b063-2fb41d2d5f03-25576643",
            "merchantName": "6.49e+13"
        }
    ],
    "cursorId": "b934604c-2be7-4edb-b063-2fb41d2d5f03-25576384"
}
