{
    "aggregateTransactionId": "AggregatedTransactionDetailsTESTID",
    "receivedTransactions": [
        {
            "merchantName": "RBS salary",
            "transactionId": "9",
            "merchantLogoURL": "http://somecloudfronturl.com/natwest_logo.jpg",
            "transactionTimestamp": "2018-06-18T00:00:00.000",
            "transactionAmount": 2000,
            "spendingType": "income",
            "preselected": true,
            "cycleTitle":""
        }],
    "spentTransactions": [
        {
            "transactionId": "10",
            "spendingType": "bill",
            "transactionTimestamp": "2018-05-12T10:00:00.000",
            "merchantName": "TV License Guys",
            "transactionAmount": 10.00,
            "merchantLogoURL":"",
            "cycleTitle":"",
            "preselected": true
        },
        {
            "transactionId": "1",
            "spendingType": "bill",
            "transactionTimestamp": "2018-05-13T10:00:00.000",
            "merchantName": "TV License Guys",
            "transactionAmount": 10.00,
            "merchantLogoURL":"",
            "cycleTitle":"",
            "preselected": true
        },
        {
            "transactionId": "2",
            "spendingType": "bill",
            "transactionTimestamp": "2018-05-12T10:00:00.000",
            "merchantName": "NPower",
            "transactionAmount": 30.00,
            "merchantLogoURL":"",
            "cycleTitle":"",
            "preselected": true
        },
        {
            "transactionId": "3",
            "spendingType": "bill",
            "transactionTimestamp": "2018-05-15T10:00:00.000",
            "merchantName": "Thames Water",
            "transactionAmount": 130.00,
            "merchantLogoURL":"",
            "cycleTitle":"",
            "preselected": true
        },
        {
            "transactionId": "4",
            "spendingType": "day_to_day",
            "transactionTimestamp": "2018-05-09T10:00:00.000",
            "merchantName": "Amazon2",
            "transactionAmount": 30.00,
            "merchantLogoURL":"",
            "cycleTitle":"",
            "preselected": true
        },
        {
            "transactionId": "5",
            "spendingType": "day_to_day",
            "transactionTimestamp": "2018-05-12T10:00:00.000",
            "merchantName": "Itsu",
            "transactionAmount": 10.00,
            "merchantLogoURL":"",
            "cycleTitle":"",
            "preselected": true
        },
        {
            "transactionId": "6",
            "spendingType": "day_to_day",
            "transactionTimestamp": "2018-05-10T10:00:00.000",
            "merchantName": "TESCO",
            "transactionAmount": 40.00,
            "merchantLogoURL":"",
            "cycleTitle":"",
            "preselected": true
        },
        {
            "transactionId": "7",
            "spendingType": "day_to_day",
            "transactionTimestamp": "2018-05-15T10:00:00.000",
            "merchantName": "Pret",
            "transactionAmount": 50.00,
            "merchantLogoURL":"",
            "cycleTitle":"",
            "preselected": true
        },
        {
            "transactionId": "8",
            "spendingType": "bill",
            "transactionTimestamp": "2018-05-12T10:00:00.000",
            "merchantName": "Insurance",
            "transactionAmount": 10.00,
            "merchantLogoURL":"",
            "cycleTitle":"",
            "preselected": true
        }
        
    ]
}
