{
    "id" : "Dan31102018-101",
    "createdDate" : "2018-10-31T00:00:00.000",
    "prophetPartyId" : "65007bb3-eae4-4fe6-96ad-ba1bbbc7dc99",
    "type" : "daily",
    "title" : "Daily Roundup",
    "summary" : "See yesterday’s money in and out, and what’s coming up tomorrow",
    "items" : [ {
               "screenType" : "lastPage",
               "order" : 1,
               "content" : {
               "displayStatusImage" : false,
               "header" : "Welcome to Roundups",
               "body" : "All your top money in and out",
               "darkText" : false
               }
               }, {
               "screenType" : "transactions",
               "order" : 2,
               "content" : {
               "tense" : "WHAT'S HAPPENED?",
               "displayStatusImage" : false,
               "header" : "Yesterday, nothing came in and nothing came out. You're breaking even",
               "body" : "1. To see more details of money in and out log in to your NatWest app. \n \n2. Money can take a few days to appear in your account.",
               "darkText" : true,
               "transaction" : {
               "totalReceived" : {
               "amount" : 0.0,
               "count" : 0
               },
               "totalSpent" : {
               "amount" : 0.0,
               "count" : 0
               }
               }
               }
               }, {
               "screenType" : "insight",
               "order" : 3,
               "content" : {
               "insightId" : "3726745aa887-97dd-425b-9538-08622b7c71fa",
               "tense" : "WHAT'S HAPPENED?",
               "displayStatusImage" : false,
               "createdDate" : "2018-10-14T09:28:33.145",
               "header" : "Audi A3 tax 2018. Sorted",
               "body" : "Your car tax payment of £20 was made yesterday from your NatWest current account.",
               "imageURL" : "https://s3-eu-west-1.amazonaws.com/796358143889-eu-west-1-prophet-ftdev-content/images/Active/219_L_Tags.jpg",
               "darkText" : true
               }
               }, {
               "screenType" : "actionableInsight",
               "order" : 4,
               "content" : {
               "insightId" : "111aa887-97dd-425b-9538-06622b7c71fa",
               "tense" : "COMING UP",
               "status" : "todo",
               "statusMessage" : "Upcoming action",
               "displayStatusImage" : false,
               "createdDate" : "2018-10-11T09:28:33.145",
               "dueDate" : "2018-10-13T09:28:33.145",
               "header" : "Mortgage coming up for renewal",
               "body" : "Make sure that funds are available in your account",
               "imageURL" : "https://d3l4nolfiy1knf.cloudfront.net/Active/Plane-buildings.jpg",
               "darkText" : false
               }
               }, {
               "screenType" : "lastPage",
               "order" : 5,
               "content" : {
               "displayStatusImage" : false,
               "header" : "That's it for today, I'll have more for you tomorrow",
               "darkText" : false
               }
               } ],
    "new" : false
}
